\relax 
\catcode`"\active
\bibstyle{gost705}
\select@language{russian}
\@writefile{toc}{\select@language{russian}}
\@writefile{lof}{\select@language{russian}}
\@writefile{lot}{\select@language{russian}}
\providecommand {\FN@pp@footnotehinttrue }{}
\providecommand {\FN@pp@footnote@aux }[2]{}
\FN@pp@footnotehinttrue 
\FN@pp@footnotehinttrue 
\FN@pp@footnotehinttrue 
\FN@pp@footnotehinttrue 
\@writefile{toc}{\contentsline {chapter}{\CYRV \CYRV \CYRE \CYRD \CYRE \CYRN \CYRI \CYRE }{3}}
\FN@pp@footnotehinttrue 
\FN@pp@footnotehinttrue 
\@writefile{toc}{\contentsline {chapter}{\numberline {1}\IeC {\CYRT }\IeC {\cyre }\IeC {\cyro }\IeC {\cyrr }\IeC {\cyre }\IeC {\cyrt }\IeC {\cyri }\IeC {\cyrch }\IeC {\cyre }\IeC {\cyrs }\IeC {\cyrk }\IeC {\cyri }\IeC {\cyre } \IeC {\cyro }\IeC {\cyrs }\IeC {\cyrn }\IeC {\cyro }\IeC {\cyrv }\IeC {\cyrery }}{6}}
\@writefile{toc}{\contentsline {section}{\numberline {1.1}\IeC {\CYRV }\IeC {\cyri }\IeC {\cyrd }\IeC {\cyrery } \IeC {\cyrt }\IeC {\cyre }\IeC {\cyrs }\IeC {\cyrt }\IeC {\cyri }\IeC {\cyrr }\IeC {\cyro }\IeC {\cyrv }\IeC {\cyra }\IeC {\cyrn }\IeC {\cyri }\IeC {\cyrya } \IeC {\cyrp }\IeC {\cyrr }\IeC {\cyro }\IeC {\cyrg }\IeC {\cyrr }\IeC {\cyra }\IeC {\cyrm }\IeC {\cyrm }\IeC {\cyrn }\IeC {\cyro }\IeC {\cyrg }\IeC {\cyro } \IeC {\cyro }\IeC {\cyrb }\IeC {\cyre }\IeC {\cyrs }\IeC {\cyrp }\IeC {\cyre }\IeC {\cyrch }\IeC {\cyre }\IeC {\cyrn }\IeC {\cyri }\IeC {\cyrya }}{6}}
\@writefile{toc}{\contentsline {section}{\numberline {1.2}\IeC {\CYRA }\IeC {\cyrv }\IeC {\cyrt }\IeC {\cyro }\IeC {\cyrm }\IeC {\cyra }\IeC {\cyrt }\IeC {\cyri }\IeC {\cyrz }\IeC {\cyra }\IeC {\cyrc }\IeC {\cyri }\IeC {\cyrya } \IeC {\cyrp }\IeC {\cyrr }\IeC {\cyro }\IeC {\cyrc }\IeC {\cyre }\IeC {\cyrs }\IeC {\cyrs }\IeC {\cyra } \IeC {\cyrt }\IeC {\cyre }\IeC {\cyrs }\IeC {\cyrt }\IeC {\cyri }\IeC {\cyrr }\IeC {\cyro }\IeC {\cyrv }\IeC {\cyra }\IeC {\cyrn }\IeC {\cyri }\IeC {\cyrya }}{7}}
\@writefile{toc}{\contentsline {subsection}{\numberline {1.2.1}\IeC {\CYRP }\IeC {\cyrr }\IeC {\cyre }\IeC {\cyri }\IeC {\cyrm }\IeC {\cyru }\IeC {\cyrshch }\IeC {\cyre }\IeC {\cyrs }\IeC {\cyrt }\IeC {\cyrv }\IeC {\cyra } \IeC {\cyra }\IeC {\cyrv }\IeC {\cyrt }\IeC {\cyro }\IeC {\cyrm }\IeC {\cyra }\IeC {\cyrt }\IeC {\cyri }\IeC {\cyrz }\IeC {\cyra }\IeC {\cyrc }\IeC {\cyri }\IeC {\cyri } \IeC {\cyrt }\IeC {\cyre }\IeC {\cyrs }\IeC {\cyrt }\IeC {\cyri }\IeC {\cyrr }\IeC {\cyro }\IeC {\cyrv }\IeC {\cyra }\IeC {\cyrn }\IeC {\cyri }\IeC {\cyrya }}{7}}
\@writefile{toc}{\contentsline {subsection}{\numberline {1.2.2}\IeC {\CYRN }\IeC {\cyre }\IeC {\cyrd }\IeC {\cyro }\IeC {\cyrs }\IeC {\cyrt }\IeC {\cyra }\IeC {\cyrt }\IeC {\cyrk }\IeC {\cyri } \IeC {\cyra }\IeC {\cyrv }\IeC {\cyrt }\IeC {\cyro }\IeC {\cyrm }\IeC {\cyra }\IeC {\cyrt }\IeC {\cyri }\IeC {\cyrz }\IeC {\cyra }\IeC {\cyrc }\IeC {\cyri }\IeC {\cyri } \IeC {\cyrt }\IeC {\cyre }\IeC {\cyrs }\IeC {\cyrt }\IeC {\cyri }\IeC {\cyrr }\IeC {\cyro }\IeC {\cyrv }\IeC {\cyra }\IeC {\cyrn }\IeC {\cyri }\IeC {\cyrya }}{8}}
\FN@pp@footnotehinttrue 
\FN@pp@footnotehinttrue 
\@writefile{toc}{\contentsline {chapter}{\numberline {2}\IeC {\CYRO }\IeC {\cyrr }\IeC {\cyrg }\IeC {\cyra }\IeC {\cyrn }\IeC {\cyri }\IeC {\cyrz }\IeC {\cyra }\IeC {\cyrc }\IeC {\cyri }\IeC {\cyrya } \IeC {\cyra }\IeC {\cyrv }\IeC {\cyrt }\IeC {\cyro }\IeC {\cyrm }\IeC {\cyra }\IeC {\cyrt }\IeC {\cyri }\IeC {\cyrz }\IeC {\cyri }\IeC {\cyrr }\IeC {\cyro }\IeC {\cyrv }\IeC {\cyra }\IeC {\cyrn }\IeC {\cyrn }\IeC {\cyro }\IeC {\cyrg }\IeC {\cyro } \IeC {\cyrp }\IeC {\cyrr }\IeC {\cyro }\IeC {\cyrc }\IeC {\cyre }\IeC {\cyrs }\IeC {\cyrs }\IeC {\cyra } \IeC {\cyrt }\IeC {\cyre }\IeC {\cyrs }\IeC {\cyrt }\IeC {\cyri }\IeC {\cyrr }\IeC {\cyro }\IeC {\cyrv }\IeC {\cyra }\IeC {\cyrn }\IeC {\cyri }\IeC {\cyrya }}{10}}
\@writefile{toc}{\contentsline {section}{\numberline {2.1}\IeC {\CYRA }\IeC {\cyrr }\IeC {\cyrh }\IeC {\cyri }\IeC {\cyrt }\IeC {\cyre }\IeC {\cyrk }\IeC {\cyrt }\IeC {\cyru }\IeC {\cyrr }\IeC {\cyra } \IeC {\cyrs }\IeC {\cyri }\IeC {\cyrs }\IeC {\cyrt }\IeC {\cyre }\IeC {\cyrm }\IeC {\cyrery } \IeC {\cyra }\IeC {\cyrv }\IeC {\cyrt }\IeC {\cyro }\IeC {\cyrm }\IeC {\cyra }\IeC {\cyrt }\IeC {\cyri }\IeC {\cyrz }\IeC {\cyri }\IeC {\cyrr }\IeC {\cyro }\IeC {\cyrv }\IeC {\cyra }\IeC {\cyrn }\IeC {\cyrn }\IeC {\cyro }\IeC {\cyrg }\IeC {\cyro } \IeC {\cyrt }\IeC {\cyre }\IeC {\cyrs }\IeC {\cyrt }\IeC {\cyri }\IeC {\cyrr }\IeC {\cyro }\IeC {\cyrv }\IeC {\cyra }\IeC {\cyrn }\IeC {\cyri }\IeC {\cyrya }}{10}}
\@writefile{toc}{\contentsline {subsection}{\numberline {2.1.1}C\IeC {\cyri }\IeC {\cyrs }\IeC {\cyrt }\IeC {\cyre }\IeC {\cyrm }\IeC {\cyra } \IeC {\cyrn }\IeC {\cyre }\IeC {\cyrp }\IeC {\cyrr }\IeC {\cyre }\IeC {\cyrr }\IeC {\cyrery }\IeC {\cyrv }\IeC {\cyrn }\IeC {\cyro }\IeC {\cyrg }\IeC {\cyro } \IeC {\cyri }\IeC {\cyrn }\IeC {\cyrt }\IeC {\cyre }\IeC {\cyrg }\IeC {\cyrr }\IeC {\cyra }\IeC {\cyrc }\IeC {\cyri }\IeC {\cyro }\IeC {\cyrn }\IeC {\cyrn }\IeC {\cyro }\IeC {\cyrg }\IeC {\cyro } \IeC {\cyrt }\IeC {\cyre }\IeC {\cyrs }\IeC {\cyrt }\IeC {\cyri }\IeC {\cyrr }\IeC {\cyro }\IeC {\cyrv }\IeC {\cyra }\IeC {\cyrn }\IeC {\cyri }\IeC {\cyrya }}{11}}
\@writefile{toc}{\contentsline {subsection}{\numberline {2.1.2}C\IeC {\cyri }\IeC {\cyrs }\IeC {\cyrt }\IeC {\cyre }\IeC {\cyrm }\IeC {\cyra } \IeC {\cyra }\IeC {\cyrv }\IeC {\cyrt }\IeC {\cyro }\IeC {\cyrm }\IeC {\cyra }\IeC {\cyrt }\IeC {\cyri }\IeC {\cyrz }\IeC {\cyri }\IeC {\cyrr }\IeC {\cyro }\IeC {\cyrv }\IeC {\cyra }\IeC {\cyrn }\IeC {\cyrn }\IeC {\cyro }\IeC {\cyrg }\IeC {\cyro } \IeC {\cyrv }\IeC {\cyrery }\IeC {\cyrp }\IeC {\cyro }\IeC {\cyrl }\IeC {\cyrn }\IeC {\cyre }\IeC {\cyrn }\IeC {\cyri }\IeC {\cyrya } \IeC {\cyrt }\IeC {\cyre }\IeC {\cyrs }\IeC {\cyrt }\IeC {\cyro }\IeC {\cyrv }}{11}}
\@writefile{toc}{\contentsline {subsection}{\numberline {2.1.3}\IeC {\CYRS }\IeC {\cyri }\IeC {\cyrs }\IeC {\cyrt }\IeC {\cyre }\IeC {\cyrm }\IeC {\cyra } \IeC {\cyro }\IeC {\cyrp }\IeC {\cyro }\IeC {\cyrv }\IeC {\cyre }\IeC {\cyrshch }\IeC {\cyre }\IeC {\cyrn }\IeC {\cyri }\IeC {\cyrya }}{11}}
\@writefile{toc}{\contentsline {subsection}{\numberline {2.1.4}\IeC {\CYRH }\IeC {\cyrr }\IeC {\cyra }\IeC {\cyrn }\IeC {\cyri }\IeC {\cyrl }\IeC {\cyri }\IeC {\cyrshch }\IeC {\cyre } \IeC {\cyrzh }\IeC {\cyru }\IeC {\cyrr }\IeC {\cyrn }\IeC {\cyra }\IeC {\cyrl }\IeC {\cyra } \IeC {\cyro }\IeC {\cyrsh }\IeC {\cyri }\IeC {\cyrb }\IeC {\cyro }\IeC {\cyrk } \IeC {\cyrs }\IeC {\cyrb }\IeC {\cyro }\IeC {\cyrr }\IeC {\cyrk }\IeC {\cyri }}{12}}
\@writefile{toc}{\contentsline {section}{\numberline {2.2}\IeC {\CYRO }\IeC {\cyrb }\IeC {\cyre }\IeC {\cyrs }\IeC {\cyrp }\IeC {\cyre }\IeC {\cyrch }\IeC {\cyre }\IeC {\cyrn }\IeC {\cyri }\IeC {\cyre } \IeC {\cyri }\IeC {\cyrn }\IeC {\cyrf }\IeC {\cyro }\IeC {\cyrr }\IeC {\cyrm }\IeC {\cyra }\IeC {\cyrc }\IeC {\cyri }\IeC {\cyro }\IeC {\cyrn }\IeC {\cyrn }\IeC {\cyro }\IeC {\cyrishrt } \IeC {\cyrb }\IeC {\cyre }\IeC {\cyrz }\IeC {\cyro }\IeC {\cyrp }\IeC {\cyra }\IeC {\cyrs }\IeC {\cyrn }\IeC {\cyro }\IeC {\cyrs }\IeC {\cyrt }\IeC {\cyri } \IeC {\cyrs }\IeC {\cyri }\IeC {\cyrs }\IeC {\cyrt }\IeC {\cyre }\IeC {\cyrm }\IeC {\cyrery }}{12}}
\@writefile{toc}{\contentsline {subsection}{\numberline {2.2.1}\IeC {\CYRS }\IeC {\cyrt }\IeC {\cyro }\IeC {\cyrr }\IeC {\cyro }\IeC {\cyrn }\IeC {\cyrn }\IeC {\cyre }\IeC {\cyre } \IeC {\cyrp }\IeC {\cyrr }\IeC {\cyro }\IeC {\cyrg }\IeC {\cyrr }\IeC {\cyra }\IeC {\cyrm }\IeC {\cyrm }\IeC {\cyrn }\IeC {\cyro }\IeC {\cyre } \IeC {\cyro }\IeC {\cyrb }\IeC {\cyre }\IeC {\cyrs }\IeC {\cyrp }\IeC {\cyre }\IeC {\cyrch }\IeC {\cyre }\IeC {\cyrn }\IeC {\cyri }\IeC {\cyre }}{12}}
\@writefile{toc}{\contentsline {subsection}{\numberline {2.2.2}\IeC {\CYRR }\IeC {\cyra }\IeC {\cyrz }\IeC {\cyrr }\IeC {\cyra }\IeC {\cyrb }\IeC {\cyro }\IeC {\cyrt }\IeC {\cyra }\IeC {\cyrn }\IeC {\cyrn }\IeC {\cyro }\IeC {\cyre } \IeC {\cyrp }\IeC {\cyrr }\IeC {\cyro }\IeC {\cyrg }\IeC {\cyrr }\IeC {\cyra }\IeC {\cyrm }\IeC {\cyrm }\IeC {\cyrn }\IeC {\cyro }\IeC {\cyre } \IeC {\cyro }\IeC {\cyrb }\IeC {\cyre }\IeC {\cyrs }\IeC {\cyrp }\IeC {\cyre }\IeC {\cyrch }\IeC {\cyre }\IeC {\cyrn }\IeC {\cyri }\IeC {\cyre }}{13}}
\FN@pp@footnotehinttrue 
\FN@pp@footnotehinttrue 
\@writefile{toc}{\contentsline {chapter}{\numberline {3}\IeC {\CYRO }\IeC {\cyrb }\IeC {\cyrz }\IeC {\cyro }\IeC {\cyrr } \IeC {\cyrg }\IeC {\cyro }\IeC {\cyrt }\IeC {\cyro }\IeC {\cyrv }\IeC {\cyrery }\IeC {\cyrh } \IeC {\cyrr }\IeC {\cyre }\IeC {\cyrsh }\IeC {\cyre }\IeC {\cyrn }\IeC {\cyri }\IeC {\cyrishrt }}{15}}
\@writefile{toc}{\contentsline {section}{\numberline {3.1}RedMine}{15}}
\@writefile{toc}{\contentsline {subsection}{\numberline {3.1.1}\IeC {\CYRF }\IeC {\cyru }\IeC {\cyrn }\IeC {\cyrk }\IeC {\cyrc }\IeC {\cyri }\IeC {\cyro }\IeC {\cyrn }\IeC {\cyra }\IeC {\cyrl }\IeC {\cyrsftsn }\IeC {\cyrn }\IeC {\cyrery }\IeC {\cyre } \IeC {\cyrv }\IeC {\cyro }\IeC {\cyrz }\IeC {\cyrm }\IeC {\cyro }\IeC {\cyrzh }\IeC {\cyrn }\IeC {\cyro }\IeC {\cyrs }\IeC {\cyrt }\IeC {\cyri }}{15}}
\@writefile{toc}{\contentsline {subsection}{\numberline {3.1.2}\IeC {\CYRS }\IeC {\cyrt }\IeC {\cyrr }\IeC {\cyru }\IeC {\cyrk }\IeC {\cyrt }\IeC {\cyru }\IeC {\cyrr }\IeC {\cyra } \IeC {\cyrb }\IeC {\cyra }\IeC {\cyrz }\IeC {\cyrery } \IeC {\cyrd }\IeC {\cyra }\IeC {\cyrn }\IeC {\cyrn }\IeC {\cyrery }\IeC {\cyrh }}{16}}
\@writefile{toc}{\contentsline {subsection}{\numberline {3.1.3}\IeC {\CYRN }\IeC {\cyre }\IeC {\cyrd }\IeC {\cyro }\IeC {\cyrs }\IeC {\cyrt }\IeC {\cyra }\IeC {\cyrt }\IeC {\cyrk }\IeC {\cyri }}{18}}
\citation{CWE_SANS_25}
\@writefile{toc}{\contentsline {section}{\numberline {3.2}TeamCity}{20}}
\@writefile{toc}{\contentsline {subsection}{\numberline {3.2.1}\IeC {\CYRF }\IeC {\cyru }\IeC {\cyrn }\IeC {\cyrc }\IeC {\cyri }\IeC {\cyro }\IeC {\cyrn }\IeC {\cyra }\IeC {\cyrl }\IeC {\cyrsftsn }\IeC {\cyrn }\IeC {\cyrery }\IeC {\cyrishrt } \IeC {\cyrv }\IeC {\cyro }\IeC {\cyrz }\IeC {\cyrm }\IeC {\cyro }\IeC {\cyrzh }\IeC {\cyrn }\IeC {\cyro }\IeC {\cyrs }\IeC {\cyrt }\IeC {\cyri }}{20}}
\FN@pp@footnotehinttrue 
\@writefile{toc}{\contentsline {chapter}{\CYRZ \CYRA \CYRK \CYRL \CYRYU \CYRCH \CYRE \CYRN \CYRI \CYRE }{21}}
\FN@pp@footnotehinttrue 
\bibcite{test-intro}{1}
\bibcite{cybbertson}{2}
\bibcite{jansson}{3}
\bibcite{myers}{4}
\bibcite{testexp}{5}
\bibcite{tp-rup}{6}
\bibcite{holmes}{7}
\FN@pp@footnotehinttrue 
\@writefile{toc}{\contentsline {chapter}{\CYRS \CYRP \CYRI \CYRS \CYRO \CYRK ~ \CYRI \CYRS \CYRP \CYRO \CYRL \CYRSFTSN \CYRZ \CYRO \CYRV \CYRA \CYRN \CYRN \CYRERY \CYRH ~ \CYRI \CYRS \CYRT \CYRO \CYRCH \CYRN \CYRI \CYRK \CYRO \CYRV }{22}}
\newlabel{reftotalpages}{{23}{22}}
\newlabel{reftotaltables}{{0}{22}}
\newlabel{reftotalfigures}{{0}{22}}
\newlabel{reftotalbibs}{{7}{22}}
\FN@pp@footnotehinttrue 
\newlabel{LastPage}{{}{22}}
\expandafter\ifx\csname c@figurecnt@totc\endcsname\relax\newcounter{figurecnt@totc}\fi\setcounter{figurecnt@totc}{0}
\expandafter\ifx\csname c@tablecnt@totc\endcsname\relax\newcounter{tablecnt@totc}\fi\setcounter{tablecnt@totc}{0}
\expandafter\ifx\csname c@citeitem@totc\endcsname\relax\newcounter{citeitem@totc}\fi\setcounter{citeitem@totc}{0}
\expandafter\ifx\csname c@page@totc\endcsname\relax\newcounter{page@totc}\fi\setcounter{page@totc}{23}
