\relax 
\catcode`"\active
\bibstyle{gost705}
\select@language{russian}
\@writefile{toc}{\select@language{russian}}
\@writefile{lof}{\select@language{russian}}
\@writefile{lot}{\select@language{russian}}
\providecommand {\FN@pp@footnotehinttrue }{}
\providecommand {\FN@pp@footnote@aux }[2]{}
\FN@pp@footnotehinttrue 
\FN@pp@footnotehinttrue 
\FN@pp@footnotehinttrue 
\FN@pp@footnotehinttrue 
\FN@pp@footnotehinttrue 
\FN@pp@footnotehinttrue 
\FN@pp@footnotehinttrue 
\FN@pp@footnotehinttrue 
\FN@pp@footnotehinttrue 
\FN@pp@footnotehinttrue 
\FN@pp@footnotehinttrue 
\@writefile{toc}{\contentsline {chapter}{\CYRV \CYRV \CYRE \CYRD \CYRE \CYRN \CYRI \CYRE }{12}}
\FN@pp@footnotehinttrue 
\FN@pp@footnotehinttrue 
\@writefile{toc}{\contentsline {chapter}{\numberline {1}\IeC {\CYRT }\IeC {\cyre }\IeC {\cyro }\IeC {\cyrr }\IeC {\cyre }\IeC {\cyrt }\IeC {\cyri }\IeC {\cyrch }\IeC {\cyre }\IeC {\cyrs }\IeC {\cyrk }\IeC {\cyri }\IeC {\cyre } \IeC {\cyro }\IeC {\cyrs }\IeC {\cyrn }\IeC {\cyro }\IeC {\cyrv }\IeC {\cyrery }}{14}}
\@writefile{toc}{\contentsline {section}{\numberline {1.1}\IeC {\CYRR }\IeC {\cyra }\IeC {\cyrz }\IeC {\cyrr }\IeC {\cyra }\IeC {\cyrb }\IeC {\cyro }\IeC {\cyrt }\IeC {\cyrk }\IeC {\cyra } \IeC {\cyrd }\IeC {\cyro }\IeC {\cyrk }\IeC {\cyru }\IeC {\cyrm }\IeC {\cyre }\IeC {\cyrn }\IeC {\cyrt }\IeC {\cyra }\IeC {\cyrc }\IeC {\cyri }\IeC {\cyri } \IeC {\cyrp }\IeC {\cyro } \IeC {\cyrt }\IeC {\cyre }\IeC {\cyrs }\IeC {\cyrt }\IeC {\cyri }\IeC {\cyrr }\IeC {\cyro }\IeC {\cyrv }\IeC {\cyra }\IeC {\cyrn }\IeC {\cyri }\IeC {\cyryu }}{14}}
\@writefile{toc}{\contentsline {subsection}{\numberline {1.1.1}\IeC {\CYRP }\IeC {\cyrl }\IeC {\cyra }\IeC {\cyrn } \IeC {\cyrt }\IeC {\cyre }\IeC {\cyrs }\IeC {\cyrt }\IeC {\cyri }\IeC {\cyrr }\IeC {\cyro }\IeC {\cyrv }\IeC {\cyra }\IeC {\cyrn }\IeC {\cyri }\IeC {\cyrya }}{14}}
\@writefile{toc}{\contentsline {subsubsection}{\numberline {1.1.1.1}\IeC {\CYRV }\IeC {\cyri }\IeC {\cyrd }\IeC {\cyrery } \IeC {\cyrt }\IeC {\cyre }\IeC {\cyrs }\IeC {\cyrt } \IeC {\cyrp }\IeC {\cyrl }\IeC {\cyra }\IeC {\cyrn }\IeC {\cyro }\IeC {\cyrv }}{15}}
\@writefile{toc}{\contentsline {subsubsection}{\numberline {1.1.1.2}\IeC {\CYRR }\IeC {\cyre }\IeC {\cyrc }\IeC {\cyre }\IeC {\cyrn }\IeC {\cyrz }\IeC {\cyri }\IeC {\cyrya } \IeC {\cyri } \IeC {\cyru }\IeC {\cyrt }\IeC {\cyrv }\IeC {\cyre }\IeC {\cyrr }\IeC {\cyrzh }\IeC {\cyrd }\IeC {\cyre }\IeC {\cyrn }\IeC {\cyri }\IeC {\cyre }}{16}}
\@writefile{toc}{\contentsline {subsection}{\numberline {1.1.2}\IeC {\CYRT }\IeC {\cyre }\IeC {\cyrs }\IeC {\cyrt }\IeC {\cyro }\IeC {\cyrv }\IeC {\cyrery }\IeC {\cyrishrt } \IeC {\cyrs }\IeC {\cyrl }\IeC {\cyru }\IeC {\cyrch }\IeC {\cyra }\IeC {\cyrishrt }}{16}}
\@writefile{toc}{\contentsline {subsection}{\numberline {1.1.3}\IeC {\CYRO }\IeC {\cyrt }\IeC {\cyrch }\IeC {\cyre }\IeC {\cyrt } \IeC {\cyro }\IeC {\cyrb } \IeC {\cyro }\IeC {\cyrsh }\IeC {\cyri }\IeC {\cyrb }\IeC {\cyrk }\IeC {\cyra }\IeC {\cyrh }}{17}}
\@writefile{toc}{\contentsline {section}{\numberline {1.2}\IeC {\CYRV }\IeC {\cyri }\IeC {\cyrd }\IeC {\cyrery } \IeC {\cyrt }\IeC {\cyre }\IeC {\cyrs }\IeC {\cyrt }\IeC {\cyri }\IeC {\cyrr }\IeC {\cyro }\IeC {\cyrv }\IeC {\cyra }\IeC {\cyrn }\IeC {\cyri }\IeC {\cyrya } \IeC {\cyrp }\IeC {\cyrr }\IeC {\cyro }\IeC {\cyrg }\IeC {\cyrr }\IeC {\cyra }\IeC {\cyrm }\IeC {\cyrm }\IeC {\cyrn }\IeC {\cyro }\IeC {\cyrg }\IeC {\cyro } \IeC {\cyro }\IeC {\cyrb }\IeC {\cyre }\IeC {\cyrs }\IeC {\cyrp }\IeC {\cyre }\IeC {\cyrch }\IeC {\cyre }\IeC {\cyrn }\IeC {\cyri }\IeC {\cyrya }}{17}}
\@writefile{toc}{\contentsline {section}{\numberline {1.3}\IeC {\CYRU }\IeC {\cyrr }\IeC {\cyro }\IeC {\cyrv }\IeC {\cyrn }\IeC {\cyri } \IeC {\cyrt }\IeC {\cyre }\IeC {\cyrs }\IeC {\cyrt }\IeC {\cyri }\IeC {\cyrr }\IeC {\cyro }\IeC {\cyrv }\IeC {\cyra }\IeC {\cyrn }\IeC {\cyri }\IeC {\cyrya } \IeC {\cyrp }\IeC {\cyrr }\IeC {\cyro }\IeC {\cyrg }\IeC {\cyrr }\IeC {\cyra }\IeC {\cyrm }\IeC {\cyrm }\IeC {\cyrn }\IeC {\cyro }\IeC {\cyrg }\IeC {\cyro } \IeC {\cyro }\IeC {\cyrb }\IeC {\cyre }\IeC {\cyrs }\IeC {\cyrp }\IeC {\cyre }\IeC {\cyrch }\IeC {\cyre }\IeC {\cyrn }\IeC {\cyri }\IeC {\cyrya }}{18}}
\@writefile{toc}{\contentsline {subsection}{\numberline {1.3.1}\IeC {\CYRK }\IeC {\cyro }\IeC {\cyrm }\IeC {\cyrp }\IeC {\cyro }\IeC {\cyrn }\IeC {\cyre }\IeC {\cyrn }\IeC {\cyrt }\IeC {\cyrn }\IeC {\cyro }\IeC {\cyre } \IeC {\cyri }\IeC {\cyrl }\IeC {\cyri } \IeC {\cyrm }\IeC {\cyro }\IeC {\cyrd }\IeC {\cyru }\IeC {\cyrl }\IeC {\cyrsftsn }\IeC {\cyrn }\IeC {\cyro }\IeC {\cyre } \IeC {\cyrt }\IeC {\cyre }\IeC {\cyrs }\IeC {\cyrt }\IeC {\cyri }\IeC {\cyrr }\IeC {\cyro }\IeC {\cyrv }\IeC {\cyra }\IeC {\cyrn }\IeC {\cyri }\IeC {\cyre }}{18}}
\@writefile{toc}{\contentsline {subsection}{\numberline {1.3.2}\IeC {\CYRI }\IeC {\cyrn }\IeC {\cyrt }\IeC {\cyre }\IeC {\cyrg }\IeC {\cyrr }\IeC {\cyra }\IeC {\cyrc }\IeC {\cyri }\IeC {\cyro }\IeC {\cyrn }\IeC {\cyrn }\IeC {\cyro }\IeC {\cyre } \IeC {\cyrt }\IeC {\cyre }\IeC {\cyrs }\IeC {\cyrt }\IeC {\cyri }\IeC {\cyrr }\IeC {\cyro }\IeC {\cyrv }\IeC {\cyra }\IeC {\cyrn }\IeC {\cyri }\IeC {\cyre }}{18}}
\@writefile{toc}{\contentsline {subsection}{\numberline {1.3.3}\IeC {\CYRS }\IeC {\cyri }\IeC {\cyrs }\IeC {\cyrt }\IeC {\cyre }\IeC {\cyrm }\IeC {\cyrn }\IeC {\cyro }\IeC {\cyre } \IeC {\cyrt }\IeC {\cyre }\IeC {\cyrs }\IeC {\cyrt }\IeC {\cyri }\IeC {\cyrr }\IeC {\cyro }\IeC {\cyrv }\IeC {\cyra }\IeC {\cyrn }\IeC {\cyri }\IeC {\cyre }}{19}}
\@writefile{toc}{\contentsline {subsection}{\numberline {1.3.4}\IeC {\CYRP }\IeC {\cyrr }\IeC {\cyri }\IeC {\cyre }\IeC {\cyrm }\IeC {\cyro }\IeC {\cyrch }\IeC {\cyrn }\IeC {\cyro }\IeC {\cyre } \IeC {\cyrt }\IeC {\cyre }\IeC {\cyrs }\IeC {\cyrt }\IeC {\cyri }\IeC {\cyrr }\IeC {\cyro }\IeC {\cyrv }\IeC {\cyra }\IeC {\cyrn }\IeC {\cyri }\IeC {\cyre } \IeC {\cyri }\IeC {\cyrl }\IeC {\cyri } \IeC {\cyrp }\IeC {\cyrr }\IeC {\cyri }\IeC {\cyre }\IeC {\cyrm }\IeC {\cyro }-\IeC {\cyrs }\IeC {\cyrd }\IeC {\cyra }\IeC {\cyrt }\IeC {\cyro }\IeC {\cyrch }\IeC {\cyrn }\IeC {\cyro }\IeC {\cyre } \IeC {\cyri }\IeC {\cyrs }\IeC {\cyrp }\IeC {\cyrery }\IeC {\cyrt }\IeC {\cyra }\IeC {\cyrn }\IeC {\cyri }\IeC {\cyre }}{20}}
\@writefile{toc}{\contentsline {section}{\numberline {1.4}\IeC {\CYRA }\IeC {\cyrv }\IeC {\cyrt }\IeC {\cyro }\IeC {\cyrm }\IeC {\cyra }\IeC {\cyrt }\IeC {\cyri }\IeC {\cyrz }\IeC {\cyra }\IeC {\cyrc }\IeC {\cyri }\IeC {\cyrya } \IeC {\cyrp }\IeC {\cyrr }\IeC {\cyro }\IeC {\cyrc }\IeC {\cyre }\IeC {\cyrs }\IeC {\cyrs }\IeC {\cyra } \IeC {\cyrt }\IeC {\cyre }\IeC {\cyrs }\IeC {\cyrt }\IeC {\cyri }\IeC {\cyrr }\IeC {\cyro }\IeC {\cyrv }\IeC {\cyra }\IeC {\cyrn }\IeC {\cyri }\IeC {\cyrya }}{20}}
\newlabel{eq:testeco}{{(1)}{21}}
\@writefile{lof}{\contentsline {figure}{\numberline {1.1}{\ignorespaces  \IeC {\CYRV }\IeC {\cyra }\IeC {\cyrr }\IeC {\cyri }\IeC {\cyra }\IeC {\cyrn }\IeC {\cyrt }\IeC {\cyrery } \IeC {\cyrt }\IeC {\cyre }\IeC {\cyrs }\IeC {\cyrt }\IeC {\cyri }\IeC {\cyrr }\IeC {\cyro }\IeC {\cyrv }\IeC {\cyra }\IeC {\cyrn }\IeC {\cyri }\IeC {\cyrya } [7] }}{22}}
\@writefile{toc}{\contentsline {subsection}{\numberline {1.4.1}\IeC {\CYRP }\IeC {\cyrr }\IeC {\cyre }\IeC {\cyri }\IeC {\cyrm }\IeC {\cyru }\IeC {\cyrshch }\IeC {\cyre }\IeC {\cyrs }\IeC {\cyrt }\IeC {\cyrv }\IeC {\cyra } \IeC {\cyra }\IeC {\cyrv }\IeC {\cyrt }\IeC {\cyro }\IeC {\cyrm }\IeC {\cyra }\IeC {\cyrt }\IeC {\cyri }\IeC {\cyrz }\IeC {\cyra }\IeC {\cyrc }\IeC {\cyri }\IeC {\cyri } \IeC {\cyrt }\IeC {\cyre }\IeC {\cyrs }\IeC {\cyrt }\IeC {\cyri }\IeC {\cyrr }\IeC {\cyro }\IeC {\cyrv }\IeC {\cyra }\IeC {\cyrn }\IeC {\cyri }\IeC {\cyrya }}{22}}
\@writefile{toc}{\contentsline {subsection}{\numberline {1.4.2}\IeC {\CYRP }\IeC {\cyrr }\IeC {\cyro }\IeC {\cyrb }\IeC {\cyrl }\IeC {\cyre }\IeC {\cyrm }\IeC {\cyrery } \IeC {\cyra }\IeC {\cyrv }\IeC {\cyrt }\IeC {\cyro }\IeC {\cyrm }\IeC {\cyra }\IeC {\cyrt }\IeC {\cyri }\IeC {\cyrz }\IeC {\cyra }\IeC {\cyrc }\IeC {\cyri }\IeC {\cyri }}{23}}
\@writefile{toc}{\contentsline {subsection}{\numberline {1.4.3}\IeC {\CYRS }\IeC {\cyrr }\IeC {\cyre }\IeC {\cyrd }\IeC {\cyrs }\IeC {\cyrt }\IeC {\cyrv }\IeC {\cyra } \IeC {\cyra }\IeC {\cyrv }\IeC {\cyrt }\IeC {\cyro }\IeC {\cyrm }\IeC {\cyra }\IeC {\cyrt }\IeC {\cyri }\IeC {\cyrz }\IeC {\cyra }\IeC {\cyrc }\IeC {\cyri }\IeC {\cyri }}{25}}
\@writefile{lof}{\contentsline {figure}{\numberline {1.2}{\ignorespaces  \IeC {\CYRS }\IeC {\cyrh }\IeC {\cyre }\IeC {\cyrm }\IeC {\cyra } \IeC {\cyrr }\IeC {\cyra }\IeC {\cyrb }\IeC {\cyro }\IeC {\cyrt }\IeC {\cyrery } \IeC {\cyrs } \IeC {\cyri }\IeC {\cyrn }\IeC {\cyrs }\IeC {\cyrt }\IeC {\cyrr }\IeC {\cyru }\IeC {\cyrm }\IeC {\cyre }\IeC {\cyrn }\IeC {\cyrt }\IeC {\cyra }\IeC {\cyrm }\IeC {\cyri } \IeC {\cyrf }\IeC {\cyru }\IeC {\cyrn }\IeC {\cyrk }\IeC {\cyrc }\IeC {\cyri }\IeC {\cyro }\IeC {\cyrn }\IeC {\cyra }\IeC {\cyrl }\IeC {\cyrsftsn }\IeC {\cyrn }\IeC {\cyro }\IeC {\cyrg }\IeC {\cyro } \IeC {\CYRA }\IeC {\CYRT } [7] }}{26}}
\@writefile{toc}{\contentsline {subsection}{\numberline {1.4.4}\IeC {\CYRK }\IeC {\cyrr }\IeC {\cyra }\IeC {\cyrt }\IeC {\cyrk }\IeC {\cyri }\IeC {\cyrishrt } \IeC {\cyro }\IeC {\cyrb }\IeC {\cyrz }\IeC {\cyro }\IeC {\cyrr } \IeC {\cyrs }\IeC {\cyrr }\IeC {\cyre }\IeC {\cyrd }\IeC {\cyrs }\IeC {\cyrt }\IeC {\cyrv } \IeC {\cyra }\IeC {\cyrv }\IeC {\cyrt }\IeC {\cyro }\IeC {\cyrm }\IeC {\cyra }\IeC {\cyrt }\IeC {\cyri }\IeC {\cyrz }\IeC {\cyra }\IeC {\cyrc }\IeC {\cyri }\IeC {\cyri } \IeC {\cyrt }\IeC {\cyre }\IeC {\cyrs }\IeC {\cyrt }\IeC {\cyri }\IeC {\cyrr }\IeC {\cyro }\IeC {\cyrv }\IeC {\cyra }\IeC {\cyrn }\IeC {\cyri }\IeC {\cyrya }}{26}}
\FN@pp@footnotehinttrue 
\FN@pp@footnotehinttrue 
\@writefile{toc}{\contentsline {chapter}{\numberline {2}\IeC {\CYRA }\IeC {\cyrr }\IeC {\cyrh }\IeC {\cyri }\IeC {\cyrt }\IeC {\cyre }\IeC {\cyrk }\IeC {\cyrt }\IeC {\cyru }\IeC {\cyrr }\IeC {\cyra } \IeC {\cyrp }\IeC {\cyrr }\IeC {\cyro }\IeC {\cyrg }\IeC {\cyrr }\IeC {\cyra }\IeC {\cyrm }\IeC {\cyrm }\IeC {\cyrn }\IeC {\cyro }\IeC {\cyrg }\IeC {\cyro } \IeC {\cyrk }\IeC {\cyro }\IeC {\cyrm }\IeC {\cyrp }\IeC {\cyrl }\IeC {\cyre }\IeC {\cyrk }\IeC {\cyrs }\IeC {\cyra } \IeC {\cyra }\IeC {\cyrv }\IeC {\cyrt }\IeC {\cyro }\IeC {\cyrm }\IeC {\cyra }\IeC {\cyrt }\IeC {\cyri }\IeC {\cyrz }\IeC {\cyri }\IeC {\cyrr }\IeC {\cyro }\IeC {\cyrv }\IeC {\cyra }\IeC {\cyrn }\IeC {\cyrn }\IeC {\cyro }\IeC {\cyrg }\IeC {\cyro } \IeC {\cyrt }\IeC {\cyre }\IeC {\cyrs }\IeC {\cyrt }\IeC {\cyri }\IeC {\cyrr }\IeC {\cyro }\IeC {\cyrv }\IeC {\cyra }\IeC {\cyrn }\IeC {\cyri }\IeC {\cyrya }}{28}}
\@writefile{lof}{\contentsline {figure}{\numberline {2.1}{\ignorespaces  \IeC {\CYRS }\IeC {\cyre }\IeC {\cyrt }\IeC {\cyre }\IeC {\cyrv }\IeC {\cyra }\IeC {\cyrya } \IeC {\cyra }\IeC {\cyrr }\IeC {\cyrh }\IeC {\cyri }\IeC {\cyrt }\IeC {\cyre }\IeC {\cyrk }\IeC {\cyrt }\IeC {\cyru }\IeC {\cyrr }\IeC {\cyra } \IeC {\cyrs }\IeC {\cyri }\IeC {\cyrs }\IeC {\cyrt }\IeC {\cyre }\IeC {\cyrm }\IeC {\cyrery } \IeC {\cyra }\IeC {\cyrv }\IeC {\cyrt }\IeC {\cyro }\IeC {\cyrm }\IeC {\cyra }\IeC {\cyrt }\IeC {\cyri }\IeC {\cyrz }\IeC {\cyri }\IeC {\cyrr }\IeC {\cyro }\IeC {\cyrv }\IeC {\cyra }\IeC {\cyrn }\IeC {\cyrn }\IeC {\cyro }\IeC {\cyrg }\IeC {\cyro } \IeC {\cyrt }\IeC {\cyre }\IeC {\cyrs }\IeC {\cyrt }\IeC {\cyri }\IeC {\cyrr }\IeC {\cyro }\IeC {\cyrv }\IeC {\cyra }\IeC {\cyrn }\IeC {\cyri }\IeC {\cyrya } }}{28}}
\@writefile{lof}{\contentsline {figure}{\numberline {2.2}{\ignorespaces  \IeC {\CYRA }\IeC {\cyrl }\IeC {\cyrg }\IeC {\cyro }\IeC {\cyrr }\IeC {\cyri }\IeC {\cyrt }\IeC {\cyrm } \IeC {\cyrr }\IeC {\cyra }\IeC {\cyrb }\IeC {\cyro }\IeC {\cyrt }\IeC {\cyrery } }}{29}}
\@writefile{toc}{\contentsline {section}{\numberline {2.1}C\IeC {\cyre }\IeC {\cyrr }\IeC {\cyrv }\IeC {\cyre }\IeC {\cyrr }\IeC {\cyrn }\IeC {\cyra }\IeC {\cyrya } \IeC {\cyrch }\IeC {\cyra }\IeC {\cyrs }\IeC {\cyrt }\IeC {\cyrsftsn }}{30}}
\@writefile{toc}{\contentsline {subsection}{\numberline {2.1.1}WEB-\IeC {\cyri }\IeC {\cyrn }\IeC {\cyrt }\IeC {\cyre }\IeC {\cyrr }\IeC {\cyrf }\IeC {\cyre }\IeC {\cyrishrt }\IeC {\cyrs }}{30}}
\@writefile{toc}{\contentsline {subsection}{\numberline {2.1.2}\IeC {\CYRM }\IeC {\cyre }\IeC {\cyrh }\IeC {\cyra }\IeC {\cyrn }\IeC {\cyri }\IeC {\cyrz }\IeC {\cyrm } \IeC {\cyro }\IeC {\cyrt }\IeC {\cyrp }\IeC {\cyrr }\IeC {\cyra }\IeC {\cyrv }\IeC {\cyrk }\IeC {\cyri } \IeC {\cyrt }\IeC {\cyre }\IeC {\cyrs }\IeC {\cyrt }\IeC {\cyro }\IeC {\cyrv }\IeC {\cyrery }\IeC {\cyrh } \IeC {\cyrs }\IeC {\cyrc }\IeC {\cyre }\IeC {\cyrn }\IeC {\cyra }\IeC {\cyrr }\IeC {\cyri }\IeC {\cyre }\IeC {\cyrv }}{32}}
\@writefile{lof}{\contentsline {figure}{\numberline {2.3}{\ignorespaces  \IeC {\CYRS }\IeC {\cyrh }\IeC {\cyre }\IeC {\cyrm }\IeC {\cyra } \IeC {\cyrr }\IeC {\cyra }\IeC {\cyrs }\IeC {\cyrs }\IeC {\cyrery }\IeC {\cyrl }\IeC {\cyrk }\IeC {\cyri } \IeC {\cyrt }\IeC {\cyre }\IeC {\cyrs }\IeC {\cyrt }\IeC {\cyro }\IeC {\cyrv }\IeC {\cyrery }\IeC {\cyrh } \IeC {\cyrs }\IeC {\cyrc }\IeC {\cyre }\IeC {\cyrn }\IeC {\cyra }\IeC {\cyrr }\IeC {\cyri }\IeC {\cyre }\IeC {\cyrv } }}{32}}
\@writefile{toc}{\contentsline {section}{\numberline {2.2}\IeC {\CYRK }\IeC {\cyrl }\IeC {\cyri }\IeC {\cyre }\IeC {\cyrn }\IeC {\cyrt }\IeC {\cyrs }\IeC {\cyrk }\IeC {\cyra }\IeC {\cyrya } \IeC {\cyrch }\IeC {\cyra }\IeC {\cyrs }\IeC {\cyrt }\IeC {\cyrsftsn }}{33}}
\@writefile{toc}{\contentsline {section}{\numberline {2.3}\IeC {\CYRS }\IeC {\cyrt }\IeC {\cyro }\IeC {\cyrr }\IeC {\cyro }\IeC {\cyrn }\IeC {\cyrn }\IeC {\cyre }\IeC {\cyre } \IeC {\cyrp }\IeC {\cyrr }\IeC {\cyro }\IeC {\cyrg }\IeC {\cyrr }\IeC {\cyra }\IeC {\cyrm }\IeC {\cyrm }\IeC {\cyrn }\IeC {\cyro }\IeC {\cyre } \IeC {\cyro }\IeC {\cyrb }\IeC {\cyre }\IeC {\cyrs }\IeC {\cyrp }\IeC {\cyre }\IeC {\cyrch }\IeC {\cyre }\IeC {\cyrn }\IeC {\cyri }\IeC {\cyre }}{33}}
\@writefile{toc}{\contentsline {subsection}{\numberline {2.3.1}\IeC {\CYRP }\IeC {\cyrr }\IeC {\cyre }\IeC {\cyri }\IeC {\cyrm }\IeC {\cyru }\IeC {\cyrshch }\IeC {\cyre }\IeC {\cyrs }\IeC {\cyrt }\IeC {\cyrv }\IeC {\cyra } \IeC {\cyrs }\IeC {\cyrv }\IeC {\cyro }\IeC {\cyrb }\IeC {\cyro }\IeC {\cyrd }\IeC {\cyrn }\IeC {\cyro }\IeC {\cyrg }\IeC {\cyro } \IeC {\cyrp }\IeC {\cyrr }\IeC {\cyro }\IeC {\cyrg }\IeC {\cyrr }\IeC {\cyra }\IeC {\cyrm }\IeC {\cyrm }\IeC {\cyrn }\IeC {\cyro }\IeC {\cyrg }\IeC {\cyro } \IeC {\cyro }\IeC {\cyrb }\IeC {\cyre }\IeC {\cyrs }\IeC {\cyrp }\IeC {\cyre }\IeC {\cyrch }\IeC {\cyre }\IeC {\cyrn }\IeC {\cyri }\IeC {\cyrya }}{33}}
\@writefile{toc}{\contentsline {subsection}{\numberline {2.3.2}\IeC {\CYRI }\IeC {\cyrs }\IeC {\cyrp }\IeC {\cyro }\IeC {\cyrl }\IeC {\cyrsftsn }\IeC {\cyrz }\IeC {\cyru }\IeC {\cyre }\IeC {\cyrm }\IeC {\cyro }\IeC {\cyre } \IeC {\cyrs }\IeC {\cyrt }\IeC {\cyro }\IeC {\cyrr }\IeC {\cyro }\IeC {\cyrn }\IeC {\cyrn }\IeC {\cyre }\IeC {\cyre } \IeC {\cyrp }\IeC {\cyrr }\IeC {\cyro }\IeC {\cyrg }\IeC {\cyrr }\IeC {\cyra }\IeC {\cyrm }\IeC {\cyrm }\IeC {\cyrn }\IeC {\cyro }\IeC {\cyre } \IeC {\cyro }\IeC {\cyrb }\IeC {\cyre }\IeC {\cyrs }\IeC {\cyrp }\IeC {\cyre }\IeC {\cyrch }\IeC {\cyre }\IeC {\cyrn }\IeC {\cyri }\IeC {\cyre }}{34}}
\@writefile{toc}{\contentsline {section}{\numberline {2.4}\IeC {\CYRO }\IeC {\cyrb }\IeC {\cyre }\IeC {\cyrs }\IeC {\cyrp }\IeC {\cyre }\IeC {\cyrch }\IeC {\cyre }\IeC {\cyrn }\IeC {\cyri }\IeC {\cyre } \IeC {\cyri }\IeC {\cyrn }\IeC {\cyrf }\IeC {\cyro }\IeC {\cyrr }\IeC {\cyrm }\IeC {\cyra }\IeC {\cyrc }\IeC {\cyri }\IeC {\cyro }\IeC {\cyrn }\IeC {\cyrn }\IeC {\cyro }\IeC {\cyrishrt } \IeC {\cyrb }\IeC {\cyre }\IeC {\cyrz }\IeC {\cyro }\IeC {\cyrp }\IeC {\cyra }\IeC {\cyrs }\IeC {\cyrn }\IeC {\cyro }\IeC {\cyrs }\IeC {\cyrt }\IeC {\cyri } \IeC {\cyrp }\IeC {\cyrr }\IeC {\cyro }\IeC {\cyrg }\IeC {\cyrr }\IeC {\cyra }\IeC {\cyrm }\IeC {\cyrm }\IeC {\cyrn }\IeC {\cyro }\IeC {\cyrg }\IeC {\cyro } \IeC {\cyrk }\IeC {\cyro }\IeC {\cyrm }\IeC {\cyrp }\IeC {\cyrl }\IeC {\cyre }\IeC {\cyrk }\IeC {\cyrs }\IeC {\cyra } \IeC {\cyra }\IeC {\cyrv }\IeC {\cyrt }\IeC {\cyro }\IeC {\cyrm }\IeC {\cyra }\IeC {\cyrt }\IeC {\cyri }\IeC {\cyrz }\IeC {\cyri }\IeC {\cyrr }\IeC {\cyro }\IeC {\cyrv }\IeC {\cyra }\IeC {\cyrn }\IeC {\cyrn }\IeC {\cyro }\IeC {\cyrg }\IeC {\cyro } \IeC {\cyrt }\IeC {\cyre }\IeC {\cyrs }\IeC {\cyrt }\IeC {\cyri }\IeC {\cyrr }\IeC {\cyro }\IeC {\cyrv }\IeC {\cyra }\IeC {\cyrn }\IeC {\cyri }\IeC {\cyrya }}{35}}
\@writefile{toc}{\contentsline {subsection}{\numberline {2.4.1}\IeC {\CYRO }\IeC {\cyrb }\IeC {\cyrz }\IeC {\cyro }\IeC {\cyrr } \IeC {\cyru }\IeC {\cyrya }\IeC {\cyrz }\IeC {\cyrv }\IeC {\cyri }\IeC {\cyrm }\IeC {\cyro }\IeC {\cyrs }\IeC {\cyrt }\IeC {\cyre }\IeC {\cyrishrt } \IeC {\cyri } \IeC {\cyrm }\IeC {\cyre }\IeC {\cyrr }\IeC {\cyrery } \IeC {\cyrz }\IeC {\cyra }\IeC {\cyrshch }\IeC {\cyri }\IeC {\cyrt }\IeC {\cyrery } TCP \IeC {\cyrs }\IeC {\cyro }\IeC {\cyre }\IeC {\cyrd }\IeC {\cyri }\IeC {\cyrn }\IeC {\cyre }\IeC {\cyrn }\IeC {\cyri }\IeC {\cyrya }}{35}}
\@writefile{toc}{\contentsline {subsection}{\numberline {2.4.2}\IeC {\CYRO }\IeC {\cyrb }\IeC {\cyrz }\IeC {\cyro }\IeC {\cyrr } \IeC {\cyru }\IeC {\cyrya }\IeC {\cyrz }\IeC {\cyrv }\IeC {\cyri }\IeC {\cyrm }\IeC {\cyro }\IeC {\cyrs }\IeC {\cyrt }\IeC {\cyre }\IeC {\cyrishrt } \IeC {\cyri } \IeC {\cyrm }\IeC {\cyre }\IeC {\cyrr }\IeC {\cyrery } \IeC {\cyrz }\IeC {\cyra }\IeC {\cyrshch }\IeC {\cyri }\IeC {\cyrt }\IeC {\cyrery } WEB-\IeC {\cyrp }\IeC {\cyrr }\IeC {\cyri }\IeC {\cyrl }\IeC {\cyro }\IeC {\cyrzh }\IeC {\cyre }\IeC {\cyrn }\IeC {\cyri }\IeC {\cyrishrt }}{36}}
\newlabel{excreg:list}{{2.1}{36}}
\@writefile{lol}{\contentsline {lstlisting}{\numberline {2.1}\IeC {\CYRP }\IeC {\cyrr }\IeC {\cyri }\IeC {\cyrm }\IeC {\cyre }\IeC {\cyrr } SQL \IeC {\cyrz }\IeC {\cyra }\IeC {\cyrp }\IeC {\cyrr }\IeC {\cyro }\IeC {\cyrs }\IeC {\cyra }}{36}}
\newlabel{excreg:list}{{2.2}{36}}
\@writefile{lol}{\contentsline {lstlisting}{\numberline {2.2}\IeC {\CYRP }\IeC {\cyrr }\IeC {\cyri }\IeC {\cyrm }\IeC {\cyre }\IeC {\cyrr } SQL \IeC {\cyrz }\IeC {\cyra }\IeC {\cyrp }\IeC {\cyrr }\IeC {\cyro }\IeC {\cyrs }\IeC {\cyra } c WHERE}{36}}
\newlabel{excreg:list}{{2.3}{37}}
\@writefile{lol}{\contentsline {lstlisting}{\numberline {2.3}\IeC {\CYRP }\IeC {\cyrr }\IeC {\cyri }\IeC {\cyrm }\IeC {\cyre }\IeC {\cyrr } SQL \IeC {\cyrz }\IeC {\cyra }\IeC {\cyrp }\IeC {\cyrr }\IeC {\cyro }\IeC {\cyrs }\IeC {\cyra } c WHERE \IeC {\cyri } UNION}{37}}
\newlabel{excreg:list}{{2.4}{37}}
\@writefile{lol}{\contentsline {lstlisting}{\numberline {2.4}\IeC {\CYRP }\IeC {\cyrr }\IeC {\cyri }\IeC {\cyrm }\IeC {\cyre }\IeC {\cyrr } \IeC {\cyru }\IeC {\cyrya }\IeC {\cyrz }\IeC {\cyrv }\IeC {\cyri }\IeC {\cyrm }\IeC {\cyro }\IeC {\cyrg }\IeC {\cyro } GET-\IeC {\cyrm }\IeC {\cyra }\IeC {\cyrs }\IeC {\cyrs }\IeC {\cyri }\IeC {\cyrv }\IeC {\cyra }}{37}}
\newlabel{excreg:list}{{2.5}{38}}
\@writefile{lol}{\contentsline {lstlisting}{\numberline {2.5}\IeC {\CYRP }\IeC {\cyrr }\IeC {\cyri }\IeC {\cyrm }\IeC {\cyre }\IeC {\cyrr } SQL \IeC {\cyrz }\IeC {\cyra }\IeC {\cyrp }\IeC {\cyrr }\IeC {\cyro }\IeC {\cyrs }\IeC {\cyra } \IeC {\cyrp }\IeC {\cyre }\IeC {\cyrr }\IeC {\cyre }\IeC {\cyrb }\IeC {\cyro }\IeC {\cyrr }\IeC {\cyra } \IeC {\cyrs }\IeC {\cyrt }\IeC {\cyro }\IeC {\cyrl }\IeC {\cyrb }\IeC {\cyrc }\IeC {\cyro }\IeC {\cyrv }}{38}}
\newlabel{excreg:list}{{2.6}{38}}
\@writefile{lol}{\contentsline {lstlisting}{\numberline {2.6}\IeC {\CYRP }\IeC {\cyrr }\IeC {\cyri }\IeC {\cyrm }\IeC {\cyre }\IeC {\cyrr } SQL \IeC {\cyrz }\IeC {\cyra }\IeC {\cyrp }\IeC {\cyrr }\IeC {\cyro }\IeC {\cyrs }\IeC {\cyra } \IeC {\cyri }\IeC {\cyrm }\IeC {\cyre }\IeC {\cyrn }\IeC {\cyri } \IeC {\cyrs }\IeC {\cyre }\IeC {\cyrr }\IeC {\cyrv }\IeC {\cyre }\IeC {\cyrr }\IeC {\cyra }}{38}}
\newlabel{excreg:list}{{2.7}{38}}
\@writefile{lol}{\contentsline {lstlisting}{\numberline {2.7}\IeC {\CYRP }\IeC {\cyrr }\IeC {\cyri }\IeC {\cyrm }\IeC {\cyre }\IeC {\cyrr } SQL \IeC {\cyrz }\IeC {\cyra }\IeC {\cyrp }\IeC {\cyrr }\IeC {\cyro }\IeC {\cyrs }\IeC {\cyra } \IeC {\cyri }\IeC {\cyrm }\IeC {\cyre }\IeC {\cyrn }\IeC {\cyri } \IeC {\cyrs }\IeC {\cyre }\IeC {\cyrr }\IeC {\cyrv }\IeC {\cyre }\IeC {\cyrr }\IeC {\cyra }}{38}}
\newlabel{excreg:list}{{2.8}{39}}
\@writefile{lol}{\contentsline {lstlisting}{\numberline {2.8}\IeC {\CYRP }\IeC {\cyrr }\IeC {\cyri }\IeC {\cyrm }\IeC {\cyre }\IeC {\cyrr } \IeC {\cyru }\IeC {\cyrya }\IeC {\cyrz }\IeC {\cyrv }\IeC {\cyri }\IeC {\cyrm }\IeC {\cyro }\IeC {\cyrg }\IeC {\cyro } \IeC {\cyrk }\IeC {\cyro }\IeC {\cyrd }\IeC {\cyra } \IeC {\cyrv } \IeC {\cyrsh }\IeC {\cyra }\IeC {\cyrb }\IeC {\cyrl }\IeC {\cyro }\IeC {\cyrn }\IeC {\cyre } Django}{39}}
\newlabel{excreg:list}{{2.9}{40}}
\@writefile{lol}{\contentsline {lstlisting}{\numberline {2.9}\IeC {\CYRP }\IeC {\cyrr }\IeC {\cyri }\IeC {\cyrm }\IeC {\cyre }\IeC {\cyrr } \IeC {\cyrv }\IeC {\cyrr }\IeC {\cyre }\IeC {\cyrd }\IeC {\cyro }\IeC {\cyrn }\IeC {\cyro }\IeC {\cyrs }\IeC {\cyrn }\IeC {\cyro }\IeC {\cyrishrt } \IeC {\cyrs }\IeC {\cyrs }\IeC {\cyrery }\IeC {\cyrl }\IeC {\cyrk }\IeC {\cyri }}{40}}
\@writefile{lof}{\contentsline {figure}{\numberline {2.4}{\ignorespaces  \IeC {\CYRA }\IeC {\cyrn }\IeC {\cyra }\IeC {\cyrl }\IeC {\cyri }\IeC {\cyrz } CSRF \IeC {\cyra }\IeC {\cyrt }\IeC {\cyra }\IeC {\cyrk }\IeC {\cyri } \IeC {\cyrs } \IeC {\cyrp }\IeC {\cyro }\IeC {\cyrm }\IeC {\cyro }\IeC {\cyrshch }\IeC {\cyrsftsn }\IeC {\cyryu } \IeC {\cyrp }\IeC {\cyrr }\IeC {\cyro }\IeC {\cyrg }\IeC {\cyrr }\IeC {\cyra }\IeC {\cyrm }\IeC {\cyrm }\IeC {\cyrery } <<WireShark>> }}{40}}
\newlabel{excreg:list}{{2.10}{40}}
\@writefile{lol}{\contentsline {lstlisting}{\numberline {2.10}\IeC {\CYRP }\IeC {\cyrr }\IeC {\cyri }\IeC {\cyrm }\IeC {\cyre }\IeC {\cyrr } \IeC {\cyru }\IeC {\cyrya }\IeC {\cyrz }\IeC {\cyrv }\IeC {\cyri }\IeC {\cyrm }\IeC {\cyro }\IeC {\cyrishrt } html-\IeC {\cyrf }\IeC {\cyro }\IeC {\cyrr }\IeC {\cyrm }\IeC {\cyrery }}{40}}
\@writefile{lof}{\contentsline {figure}{\numberline {2.5}{\ignorespaces  \IeC {\CYRS }\IeC {\cyrh }\IeC {\cyre }\IeC {\cyrm }\IeC {\cyra } CSRF \IeC {\cyra }\IeC {\cyrt }\IeC {\cyra }\IeC {\cyrk }\IeC {\cyri } }}{41}}
\FN@pp@footnotehinttrue 
\FN@pp@footnotehinttrue 
\@writefile{toc}{\contentsline {chapter}{\numberline {3}\IeC {\CYRU }\IeC {\cyrs }\IeC {\cyrt }\IeC {\cyra }\IeC {\cyrn }\IeC {\cyro }\IeC {\cyrv }\IeC {\cyrk }\IeC {\cyra } \IeC {\cyri } \IeC {\cyrn }\IeC {\cyra }\IeC {\cyrs }\IeC {\cyrt }\IeC {\cyrr }\IeC {\cyro }\IeC {\cyrishrt }\IeC {\cyrk }\IeC {\cyra } \IeC {\cyrp }\IeC {\cyrr }\IeC {\cyro }\IeC {\cyrg }\IeC {\cyrr }\IeC {\cyra }\IeC {\cyrm }\IeC {\cyrm }\IeC {\cyrn }\IeC {\cyro }\IeC {\cyrg }\IeC {\cyro } \IeC {\cyrk }\IeC {\cyro }\IeC {\cyrm }\IeC {\cyrp }\IeC {\cyrl }\IeC {\cyre }\IeC {\cyrk }\IeC {\cyrs }\IeC {\cyra }}{44}}
\@writefile{toc}{\contentsline {section}{\numberline {3.1}\IeC {\CYRS }\IeC {\cyri }\IeC {\cyrs }\IeC {\cyrt }\IeC {\cyre }\IeC {\cyrm }\IeC {\cyrn }\IeC {\cyrery }\IeC {\cyre } \IeC {\cyrt }\IeC {\cyrr }\IeC {\cyre }\IeC {\cyrb }\IeC {\cyro }\IeC {\cyrv }\IeC {\cyra }\IeC {\cyrn }\IeC {\cyri }\IeC {\cyrya }}{44}}
\@writefile{toc}{\contentsline {section}{\numberline {3.2}\IeC {\CYRZ }\IeC {\cyra }\IeC {\cyrv }\IeC {\cyri }\IeC {\cyrs }\IeC {\cyri }\IeC {\cyrm }\IeC {\cyro }\IeC {\cyrs }\IeC {\cyrt }\IeC {\cyri }}{44}}
\@writefile{toc}{\contentsline {subsection}{\numberline {3.2.1}\IeC {\CYRO }\IeC {\cyrp }\IeC {\cyre }\IeC {\cyrr }\IeC {\cyra }\IeC {\cyrc }\IeC {\cyri }\IeC {\cyro }\IeC {\cyrn }\IeC {\cyrn }\IeC {\cyra }\IeC {\cyrya } \IeC {\cyrs }\IeC {\cyri }\IeC {\cyrs }\IeC {\cyrt }\IeC {\cyre }\IeC {\cyrm }\IeC {\cyra }}{44}}
\@writefile{toc}{\contentsline {subsection}{\numberline {3.2.2}\IeC {\CYRS }\IeC {\cyri }\IeC {\cyrs }\IeC {\cyrt }\IeC {\cyre }\IeC {\cyrm }\IeC {\cyra } \IeC {\cyru }\IeC {\cyrp }\IeC {\cyrr }\IeC {\cyra }\IeC {\cyrv }\IeC {\cyrl }\IeC {\cyre }\IeC {\cyrn }\IeC {\cyri }\IeC {\cyrya } \IeC {\cyrb }\IeC {\cyra }\IeC {\cyrz }\IeC {\cyra }\IeC {\cyrm }\IeC {\cyri } \IeC {\cyrd }\IeC {\cyra }\IeC {\cyrn }\IeC {\cyrn }\IeC {\cyrery }\IeC {\cyrh }}{45}}
\@writefile{toc}{\contentsline {subsubsection}{\numberline {3.2.2.1}MySQL}{45}}
\newlabel{excreg:list}{{3.1}{46}}
\@writefile{lol}{\contentsline {lstlisting}{\numberline {3.1}\IeC {\CYRI }\IeC {\cyrs }\IeC {\cyrp }\IeC {\cyro }\IeC {\cyrl }\IeC {\cyrsftsn }\IeC {\cyrz }\IeC {\cyro }\IeC {\cyrv }\IeC {\cyra }\IeC {\cyrn }\IeC {\cyri }\IeC {\cyre } MySQL \IeC {\cyrv } \IeC {\cyrk }\IeC {\cyra }\IeC {\cyrch }\IeC {\cyre }\IeC {\cyrs }\IeC {\cyrt }\IeC {\cyrv }\IeC {\cyre } \IeC {\CYRS }\IeC {\CYRU }\IeC {\CYRB }\IeC {\CYRD }}{46}}
\gdef \LT@i {\LT@entry 
    {1}{160.75423pt}\LT@entry 
    {1}{183.11652pt}\LT@entry 
    {1}{154.66377pt}}
\@writefile{toc}{\contentsline {subsubsection}{\numberline {3.2.2.2}Oracle}{47}}
\@writefile{lot}{\contentsline {table}{\numberline {3.1}{\IeC {\CYRR }\IeC {\cyre }\IeC {\cyrd }\IeC {\cyra }\IeC {\cyrk }\IeC {\cyrc }\IeC {\cyri }\IeC {\cyri } \IeC {\CYRS }\IeC {\CYRU }\IeC {\CYRB }\IeC {\CYRD } Oracle}}{47}}
\newlabel{tab:Oracle}{{3.1}{47}}
\newlabel{excreg:list}{{3.2}{48}}
\@writefile{lol}{\contentsline {lstlisting}{\numberline {3.2}\IeC {\CYRI }\IeC {\cyrs }\IeC {\cyrp }\IeC {\cyro }\IeC {\cyrl }\IeC {\cyrsftsn }\IeC {\cyrz }\IeC {\cyro }\IeC {\cyrv }\IeC {\cyra }\IeC {\cyrn }\IeC {\cyri }\IeC {\cyre } MySQL \IeC {\cyrv } \IeC {\cyrk }\IeC {\cyra }\IeC {\cyrch }\IeC {\cyre }\IeC {\cyrs }\IeC {\cyrt }\IeC {\cyrv }\IeC {\cyre } \IeC {\CYRS }\IeC {\CYRU }\IeC {\CYRB }\IeC {\CYRD }}{48}}
\@writefile{toc}{\contentsline {subsubsection}{\numberline {3.2.2.3}PostgreSQL}{49}}
\newlabel{excreg:list}{{3.3}{50}}
\@writefile{lol}{\contentsline {lstlisting}{\numberline {3.3}\IeC {\CYRI }\IeC {\cyrs }\IeC {\cyrp }\IeC {\cyro }\IeC {\cyrl }\IeC {\cyrsftsn }\IeC {\cyrz }\IeC {\cyro }\IeC {\cyrv }\IeC {\cyra }\IeC {\cyrn }\IeC {\cyri }\IeC {\cyre } PostgreSQL \IeC {\cyrv } \IeC {\cyrk }\IeC {\cyra }\IeC {\cyrch }\IeC {\cyre }\IeC {\cyrs }\IeC {\cyrt }\IeC {\cyrv }\IeC {\cyre } \IeC {\CYRS }\IeC {\CYRU }\IeC {\CYRB }\IeC {\CYRD }}{50}}
\@writefile{toc}{\contentsline {subsubsection}{\numberline {3.2.2.4}SQLite}{51}}
\gdef \LT@ii {\LT@entry 
    {1}{180.67107pt}\LT@entry 
    {4}{82.8828pt}\LT@entry 
    {4}{236.75764pt}}
\@writefile{lot}{\contentsline {table}{\numberline {3.2}{\IeC {\CYRO }\IeC {\cyrg }\IeC {\cyrr }\IeC {\cyra }\IeC {\cyrn }\IeC {\cyri }\IeC {\cyrch }\IeC {\cyre }\IeC {\cyrn }\IeC {\cyri }\IeC {\cyrya } SQLite}}{52}}
\newlabel{tab:SQLite}{{3.2}{52}}
\newlabel{excreg:list}{{3.4}{53}}
\@writefile{lol}{\contentsline {lstlisting}{\numberline {3.4}\IeC {\CYRI }\IeC {\cyrs }\IeC {\cyrp }\IeC {\cyro }\IeC {\cyrl }\IeC {\cyrsftsn }\IeC {\cyrz }\IeC {\cyro }\IeC {\cyrv }\IeC {\cyra }\IeC {\cyrn }\IeC {\cyri }\IeC {\cyre } SQLite \IeC {\cyrv } \IeC {\cyrk }\IeC {\cyra }\IeC {\cyrch }\IeC {\cyre }\IeC {\cyrs }\IeC {\cyrt }\IeC {\cyrv }\IeC {\cyre } \IeC {\CYRS }\IeC {\CYRU }\IeC {\CYRB }\IeC {\CYRD }}{53}}
\gdef \LT@iii {\LT@entry 
    {1}{203.43336pt}\LT@entry 
    {1}{154.66377pt}\LT@entry 
    {1}{140.4374pt}}
\@writefile{toc}{\contentsline {subsubsection}{\numberline {3.2.2.5}\IeC {\CYRS }\IeC {\cyrr }\IeC {\cyra }\IeC {\cyrv }\IeC {\cyrn }\IeC {\cyri }\IeC {\cyrt }\IeC {\cyre }\IeC {\cyrl }\IeC {\cyrsftsn }\IeC {\cyrn }\IeC {\cyrery }\IeC {\cyrishrt } \IeC {\cyra }\IeC {\cyrn }\IeC {\cyra }\IeC {\cyrl }\IeC {\cyri }\IeC {\cyrz } \IeC {\CYRS }\IeC {\CYRU }\IeC {\CYRB }\IeC {\CYRD }}{54}}
\@writefile{lot}{\contentsline {table}{\numberline {3.3}{\IeC {\CYRS }\IeC {\cyrr }\IeC {\cyra }\IeC {\cyrv }\IeC {\cyrn }\IeC {\cyri }\IeC {\cyrt }\IeC {\cyre }\IeC {\cyrl }\IeC {\cyrsftsn }\IeC {\cyrn }\IeC {\cyra }\IeC {\cyrya } \IeC {\cyrt }\IeC {\cyra }\IeC {\cyrb }\IeC {\cyrl }\IeC {\cyri }\IeC {\cyrc }\IeC {\cyra } \IeC {\cyrv }\IeC {\cyro }\IeC {\cyrz }\IeC {\cyrm }\IeC {\cyro }\IeC {\cyrzh }\IeC {\cyrn }\IeC {\cyro }\IeC {\cyrs }\IeC {\cyrt }\IeC {\cyre }\IeC {\cyrishrt } MySQL \IeC {\cyri } PostgreSQL}}{54}}
\newlabel{tab:MySQLandPostrgeSQL}{{3.3}{54}}
\@writefile{toc}{\contentsline {subsection}{\numberline {3.2.3}\IeC {\CYRI }\IeC {\cyrn }\IeC {\cyrt }\IeC {\cyre }\IeC {\cyrr }\IeC {\cyrp }\IeC {\cyrr }\IeC {\cyre }\IeC {\cyrt }\IeC {\cyra }\IeC {\cyrt }\IeC {\cyro }\IeC {\cyrr } \IeC {\cyrya }\IeC {\cyrz }\IeC {\cyrery }\IeC {\cyrk }\IeC {\cyra } \IeC {\cyrp }\IeC {\cyrr }\IeC {\cyro }\IeC {\cyrg }\IeC {\cyrr }\IeC {\cyra }\IeC {\cyrm }\IeC {\cyrm }\IeC {\cyri }\IeC {\cyrr }\IeC {\cyro }\IeC {\cyrv }\IeC {\cyra }\IeC {\cyrn }\IeC {\cyri }\IeC {\cyrya } <<Python>>}{56}}
\@writefile{toc}{\contentsline {subsection}{\numberline {3.2.4}\IeC {\CYRF }\IeC {\cyrr }\IeC {\cyre }\IeC {\cyrishrt }\IeC {\cyrm }\IeC {\cyrv }\IeC {\cyro }\IeC {\cyrr }\IeC {\cyrk } <<Django>>}{56}}
\@writefile{toc}{\contentsline {section}{\numberline {3.3}\IeC {\CYRS }\IeC {\cyrt }\IeC {\cyrr }\IeC {\cyru }\IeC {\cyrk }\IeC {\cyrt }\IeC {\cyru }\IeC {\cyrr }\IeC {\cyra } \IeC {\cyrd }\IeC {\cyri }\IeC {\cyrr }\IeC {\cyre }\IeC {\cyrk }\IeC {\cyrt }\IeC {\cyro }\IeC {\cyrr }\IeC {\cyri }\IeC {\cyrishrt } \IeC {\cyrp }\IeC {\cyrr }\IeC {\cyro }\IeC {\cyre }\IeC {\cyrk }\IeC {\cyrt }\IeC {\cyra }}{58}}
\@writefile{toc}{\contentsline {section}{\numberline {3.4}\IeC {\CYRV }\IeC {\cyra }\IeC {\cyrr }\IeC {\cyri }\IeC {\cyra }\IeC {\cyrn }\IeC {\cyrt }\IeC {\cyrery } \IeC {\cyri }\IeC {\cyrs }\IeC {\cyrp }\IeC {\cyro }\IeC {\cyrl }\IeC {\cyrsftsn }\IeC {\cyrz }\IeC {\cyro }\IeC {\cyrv }\IeC {\cyra }\IeC {\cyrn }\IeC {\cyri }\IeC {\cyrya } \IeC {\cyrp }\IeC {\cyrr }\IeC {\cyro }\IeC {\cyrg }\IeC {\cyrr }\IeC {\cyra }\IeC {\cyrm }\IeC {\cyrm }\IeC {\cyrn }\IeC {\cyro }\IeC {\cyrg }\IeC {\cyro } \IeC {\cyrk }\IeC {\cyro }\IeC {\cyrm }\IeC {\cyrp }\IeC {\cyrl }\IeC {\cyre }\IeC {\cyrk }\IeC {\cyrs }\IeC {\cyra }}{59}}
\@writefile{toc}{\contentsline {subsection}{\numberline {3.4.1}\IeC {\CYRL }\IeC {\cyro }\IeC {\cyrk }\IeC {\cyra }\IeC {\cyrl }\IeC {\cyrsftsn }\IeC {\cyrn }\IeC {\cyrery }\IeC {\cyrishrt } \IeC {\cyrr }\IeC {\cyre }\IeC {\cyrzh }\IeC {\cyri }\IeC {\cyrm }}{59}}
\@writefile{lof}{\contentsline {figure}{\numberline {3.1}{\ignorespaces  \IeC {\CYRR }\IeC {\cyra }\IeC {\cyrb }\IeC {\cyro }\IeC {\cyrt }\IeC {\cyra } \IeC {\cyrp }\IeC {\cyrr }\IeC {\cyro }\IeC {\cyrg }\IeC {\cyrr }\IeC {\cyra }\IeC {\cyrm }\IeC {\cyrm }\IeC {\cyrn }\IeC {\cyro }\IeC {\cyrg }\IeC {\cyro } \IeC {\cyrk }\IeC {\cyro }\IeC {\cyrm }\IeC {\cyrp }\IeC {\cyrl }\IeC {\cyre }\IeC {\cyrk }\IeC {\cyrs }\IeC {\cyra } \IeC {\cyrv } \IeC {\cyrl }\IeC {\cyro }\IeC {\cyrk }\IeC {\cyra }\IeC {\cyrl }\IeC {\cyrsftsn }\IeC {\cyrn }\IeC {\cyro }\IeC {\cyrm } \IeC {\cyrr }\IeC {\cyre }\IeC {\cyrzh }\IeC {\cyri }\IeC {\cyrm }\IeC {\cyre } \IeC {\cyrn }\IeC {\cyra } \IeC {\cyro }\IeC {\cyrt }\IeC {\cyrd }\IeC {\cyre }\IeC {\cyrl }\IeC {\cyrsftsn }\IeC {\cyrn }\IeC {\cyro }\IeC {\cyrm } \IeC {\CYRP }\IeC {\CYRK } }}{60}}
\@writefile{toc}{\contentsline {subsection}{\numberline {3.4.2}\IeC {\CYRR }\IeC {\cyra }\IeC {\cyrs }\IeC {\cyrp }\IeC {\cyrr }\IeC {\cyre }\IeC {\cyrd }\IeC {\cyre }\IeC {\cyrl }\IeC {\cyre }\IeC {\cyrn }\IeC {\cyrn }\IeC {\cyrery }\IeC {\cyrishrt } \IeC {\cyrr }\IeC {\cyre }\IeC {\cyrzh }\IeC {\cyri }\IeC {\cyrm }}{60}}
\FN@pp@footnotehinttrue 
\@writefile{lof}{\contentsline {figure}{\numberline {3.2}{\ignorespaces  \IeC {\CYRR }\IeC {\cyra }\IeC {\cyrb }\IeC {\cyro }\IeC {\cyrt }\IeC {\cyra } \IeC {\cyrp }\IeC {\cyrr }\IeC {\cyro }\IeC {\cyrg }\IeC {\cyrr }\IeC {\cyra }\IeC {\cyrm }\IeC {\cyrm }\IeC {\cyrn }\IeC {\cyro }\IeC {\cyrg }\IeC {\cyro } \IeC {\cyrk }\IeC {\cyro }\IeC {\cyrm }\IeC {\cyrp }\IeC {\cyrl }\IeC {\cyre }\IeC {\cyrk }\IeC {\cyrs }\IeC {\cyra } \IeC {\cyrr }\IeC {\cyra }\IeC {\cyrs }\IeC {\cyrp }\IeC {\cyrr }\IeC {\cyre }\IeC {\cyrd }\IeC {\cyre }\IeC {\cyrl }\IeC {\cyre }\IeC {\cyrn }\IeC {\cyrn }\IeC {\cyro }\IeC {\cyrm } \IeC {\cyrr }\IeC {\cyre }\IeC {\cyrzh }\IeC {\cyri }\IeC {\cyrm }\IeC {\cyre } \IeC {\cyrs } \IeC {\cyri }\IeC {\cyrs }\IeC {\cyrp }\IeC {\cyro }\IeC {\cyrl }\IeC {\cyrsftsn }\IeC {\cyrz }\IeC {\cyro }\IeC {\cyrv }\IeC {\cyra }\IeC {\cyrn }\IeC {\cyri }\IeC {\cyre }\IeC {\cyrm } \IeC {\cyrh }\IeC {\cyro }\IeC {\cyrs }\IeC {\cyrt }\IeC {\cyri }\IeC {\cyrn }\IeC {\cyrg }\IeC {\cyra } }}{61}}
\FN@pp@footnotehinttrue 
\@writefile{toc}{\contentsline {chapter}{\numberline {4}\IeC {\CYRT }\IeC {\cyre }\IeC {\cyrh }\IeC {\cyrn }\IeC {\cyri }\IeC {\cyrk }\IeC {\cyro }-\IeC {\cyrerev }\IeC {\cyrk }\IeC {\cyro }\IeC {\cyrn }\IeC {\cyro }\IeC {\cyrm }\IeC {\cyri }\IeC {\cyrch }\IeC {\cyre }\IeC {\cyrs }\IeC {\cyrk }\IeC {\cyro }\IeC {\cyre } \IeC {\cyro }\IeC {\cyrb }\IeC {\cyro }\IeC {\cyrs }\IeC {\cyrn }\IeC {\cyro }\IeC {\cyrv }\IeC {\cyra }\IeC {\cyrn }\IeC {\cyri }\IeC {\cyre }}{62}}
\@writefile{toc}{\contentsline {section}{\numberline {4.1}\IeC {\CYREREV }\IeC {\cyrr }\IeC {\cyrg }\IeC {\cyro }\IeC {\cyrn }\IeC {\cyro }\IeC {\cyrm }\IeC {\cyri }\IeC {\cyrch }\IeC {\cyrn }\IeC {\cyro }\IeC {\cyrs }\IeC {\cyrt }\IeC {\cyrsftsn } \IeC {\cyrp }\IeC {\cyrr }\IeC {\cyro }\IeC {\cyrg }\IeC {\cyrr }\IeC {\cyra }\IeC {\cyrm }\IeC {\cyrm }\IeC {\cyrn }\IeC {\cyro }\IeC {\cyrg }\IeC {\cyro } \IeC {\cyrk }\IeC {\cyro }\IeC {\cyrm }\IeC {\cyrp }\IeC {\cyrl }\IeC {\cyre }\IeC {\cyrk }\IeC {\cyrs }\IeC {\cyra }}{63}}
\@writefile{toc}{\contentsline {section}{\numberline {4.2}\IeC {\CYRS }\IeC {\cyrk }\IeC {\cyro }\IeC {\cyrr }\IeC {\cyro }\IeC {\cyrs }\IeC {\cyrt }\IeC {\cyrsftsn } \IeC {\cyrv }\IeC {\cyrery }\IeC {\cyrp }\IeC {\cyro }\IeC {\cyrl }\IeC {\cyrn }\IeC {\cyrya }\IeC {\cyre }\IeC {\cyrm }\IeC {\cyrery }\IeC {\cyrh } \IeC {\cyrz }\IeC {\cyra }\IeC {\cyrd }\IeC {\cyra }\IeC {\cyrch }}{64}}
\@writefile{toc}{\contentsline {subsection}{\numberline {4.2.1}\IeC {\CYRB }\IeC {\cyra }\IeC {\cyrz }\IeC {\cyrery } \IeC {\CYRD }\IeC {\cyra }\IeC {\cyrn }\IeC {\cyrn }\IeC {\cyrery }\IeC {\cyrh }}{64}}
\@writefile{lof}{\contentsline {figure}{\numberline {4.1}{\ignorespaces  \IeC {\CYRS }\IeC {\cyrr }\IeC {\cyra }\IeC {\cyrv }\IeC {\cyrn }\IeC {\cyre }\IeC {\cyrn }\IeC {\cyri }\IeC {\cyre } \IeC {\cyrs }\IeC {\cyrk }\IeC {\cyro }\IeC {\cyrr }\IeC {\cyro }\IeC {\cyrs }\IeC {\cyrt }\IeC {\cyri } \IeC {\cyrv }\IeC {\cyrery }\IeC {\cyrp }\IeC {\cyro }\IeC {\cyrl }\IeC {\cyrn }\IeC {\cyre }\IeC {\cyrn }\IeC {\cyri }\IeC {\cyrya } \IeC {\cyro }\IeC {\cyrs }\IeC {\cyrn }\IeC {\cyro }\IeC {\cyrv }\IeC {\cyrn }\IeC {\cyrery }\IeC {\cyrh } \IeC {\cyro }\IeC {\cyrp }\IeC {\cyre }\IeC {\cyrr }\IeC {\cyra }\IeC {\cyrc }\IeC {\cyri }\IeC {\cyrishrt } }}{64}}
\@writefile{toc}{\contentsline {subsection}{\numberline {4.2.2}\IeC {\CYRF }\IeC {\cyrr }\IeC {\cyre }\IeC {\cyrishrt }\IeC {\cyrm }\IeC {\cyrv }\IeC {\cyro }\IeC {\cyrr }\IeC {\cyrk }}{65}}
\@writefile{lof}{\contentsline {figure}{\numberline {4.2}{\ignorespaces  \IeC {\CYRS }\IeC {\cyrr }\IeC {\cyra }\IeC {\cyrv }\IeC {\cyrn }\IeC {\cyre }\IeC {\cyrn }\IeC {\cyri }\IeC {\cyre } \IeC {\cyrp }\IeC {\cyro } \IeC {\cyrv }\IeC {\cyrr }\IeC {\cyre }\IeC {\cyrm }\IeC {\cyre }\IeC {\cyrn }\IeC {\cyri } \IeC {\cyrv }\IeC {\cyrery }\IeC {\cyrp }\IeC {\cyro }\IeC {\cyrl }\IeC {\cyrn }\IeC {\cyre }\IeC {\cyrn }\IeC {\cyri }\IeC {\cyrya } \IeC {\cyrk }\IeC {\cyro }\IeC {\cyrm }\IeC {\cyrm }\IeC {\cyra }\IeC {\cyrn }\IeC {\cyrd }\IeC {\cyrery } }}{65}}
\gdef \LT@iv {\LT@entry 
    {1}{283.10117pt}\LT@entry 
    {1}{69.3055pt}\LT@entry 
    {2}{76.23157pt}\LT@entry 
    {2}{70.30943pt}}
\@writefile{lof}{\contentsline {figure}{\numberline {4.3}{\ignorespaces  \IeC {\CYRS }\IeC {\cyrr }\IeC {\cyra }\IeC {\cyrv }\IeC {\cyrn }\IeC {\cyre }\IeC {\cyrn }\IeC {\cyri }\IeC {\cyre } \IeC {\cyrp }\IeC {\cyro } \IeC {\cyri }\IeC {\cyrs }\IeC {\cyrp }\IeC {\cyro }\IeC {\cyrl }\IeC {\cyrsftsn }\IeC {\cyrz }\IeC {\cyro }\IeC {\cyrv }\IeC {\cyra }\IeC {\cyrn }\IeC {\cyri }\IeC {\cyryu } \IeC {\CYRO }\IeC {\CYRZ }\IeC {\CYRU } }}{66}}
\@writefile{toc}{\contentsline {section}{\numberline {4.3}\IeC {\CYRO }\IeC {\cyrb }\IeC {\cyrshch }\IeC {\cyre }\IeC {\cyre } \IeC {\cyrs }\IeC {\cyrr }\IeC {\cyra }\IeC {\cyrv }\IeC {\cyrn }\IeC {\cyre }\IeC {\cyrn }\IeC {\cyri }\IeC {\cyre } \IeC {\cyrs } \IeC {\cyra }\IeC {\cyrn }\IeC {\cyra }\IeC {\cyrl }\IeC {\cyro }\IeC {\cyrg }\IeC {\cyri }\IeC {\cyrch }\IeC {\cyrn }\IeC {\cyrery }\IeC {\cyrm }\IeC {\cyri } \IeC {\cyrp }\IeC {\cyrr }\IeC {\cyro }\IeC {\cyrg }\IeC {\cyrr }\IeC {\cyra }\IeC {\cyrm }\IeC {\cyrm }\IeC {\cyrn }\IeC {\cyrery }\IeC {\cyrm }\IeC {\cyri } \IeC {\cyrk }\IeC {\cyro }\IeC {\cyrm }\IeC {\cyrp }\IeC {\cyrl }\IeC {\cyre }\IeC {\cyrk }\IeC {\cyrs }\IeC {\cyra }\IeC {\cyrm }\IeC {\cyri }}{66}}
\@writefile{toc}{\contentsline {subsection}{\numberline {4.3.1}\IeC {\CYRO }\IeC {\cyrb }\IeC {\cyro }\IeC {\cyrs }\IeC {\cyrn }\IeC {\cyro }\IeC {\cyrv }\IeC {\cyra }\IeC {\cyrn }\IeC {\cyri }\IeC {\cyre } \IeC {\cyrv }\IeC {\cyrery }\IeC {\cyrb }\IeC {\cyro }\IeC {\cyrr }\IeC {\cyra } \IeC {\cyra }\IeC {\cyrn }\IeC {\cyra }\IeC {\cyrl }\IeC {\cyro }\IeC {\cyrg }\IeC {\cyra } \IeC {\cyrd }\IeC {\cyrl }\IeC {\cyrya } \IeC {\cyrs }\IeC {\cyrr }\IeC {\cyra }\IeC {\cyrv }\IeC {\cyrn }\IeC {\cyre }\IeC {\cyrn }\IeC {\cyri }\IeC {\cyrya }}{66}}
\@writefile{lot}{\contentsline {table}{\numberline {4.1}{\IeC {\CYRS }\IeC {\cyrr }\IeC {\cyra }\IeC {\cyrv }\IeC {\cyrn }\IeC {\cyre }\IeC {\cyrn }\IeC {\cyri }\IeC {\cyre } \IeC {\CYRP }\IeC {\CYRK } \IeC {\CYRA }\IeC {\CYRT } \IeC {\cyrs } \IeC {\cyra }\IeC {\cyrn }\IeC {\cyra }\IeC {\cyrl }\IeC {\cyro }\IeC {\cyrg }\IeC {\cyra }\IeC {\cyrm }\IeC {\cyri }}}{66}}
\newlabel{tab:comp}{{4.1}{66}}
\gdef \LT@v {\LT@entry 
    {1}{303.018pt}\LT@entry 
    {1}{69.3055pt}\LT@entry 
    {1}{126.21101pt}}
\@writefile{toc}{\contentsline {subsection}{\numberline {4.3.2}\IeC {\CYRO }\IeC {\cyrb }\IeC {\cyro }\IeC {\cyrs }\IeC {\cyrn }\IeC {\cyro }\IeC {\cyrv }\IeC {\cyra }\IeC {\cyrn }\IeC {\cyri }\IeC {\cyre } \IeC {\cyrv }\IeC {\cyrery }\IeC {\cyrb }\IeC {\cyro }\IeC {\cyrr }\IeC {\cyra } \IeC {\cyrk }\IeC {\cyrr }\IeC {\cyri }\IeC {\cyrt }\IeC {\cyre }\IeC {\cyrr }\IeC {\cyri }\IeC {\cyre }\IeC {\cyrv } \IeC {\cyrd }\IeC {\cyrl }\IeC {\cyrya } \IeC {\cyrs }\IeC {\cyrr }\IeC {\cyra }\IeC {\cyrv }\IeC {\cyrn }\IeC {\cyre }\IeC {\cyrn }\IeC {\cyri }\IeC {\cyrya }}{68}}
\newlabel{eq:koef}{{(2)}{68}}
\@writefile{lot}{\contentsline {table}{\numberline {4.2}{\IeC {\CYRT }\IeC {\cyre }\IeC {\cyrh }\IeC {\cyrn }\IeC {\cyri }\IeC {\cyrk }\IeC {\cyro }-\IeC {\cyrerev }\IeC {\cyrk }\IeC {\cyrs }\IeC {\cyrp }\IeC {\cyrl }\IeC {\cyru }\IeC {\cyra }\IeC {\cyrt }\IeC {\cyra }\IeC {\cyrc }\IeC {\cyri }\IeC {\cyro }\IeC {\cyrn }\IeC {\cyrn }\IeC {\cyrery }\IeC {\cyre } \IeC {\cyrp }\IeC {\cyra }\IeC {\cyrr }\IeC {\cyra }\IeC {\cyrm }\IeC {\cyre }\IeC {\cyrt }\IeC {\cyrr }\IeC {\cyrery } \IeC {\CYRP }\IeC {\CYRK } \IeC {\CYRA }\IeC {\CYRT }}}{68}}
\newlabel{tab:kof}{{4.2}{68}}
\gdef \LT@vi {\LT@entry 
    {1}{303.018pt}\LT@entry 
    {1}{69.3055pt}\LT@entry 
    {1}{126.21101pt}}
\gdef \LT@vii {\LT@entry 
    {1}{303.018pt}\LT@entry 
    {1}{69.3055pt}\LT@entry 
    {1}{126.21101pt}}
\@writefile{lot}{\contentsline {table}{\numberline {4.3}{\IeC {\CYRT }\IeC {\cyre }\IeC {\cyrh }\IeC {\cyrn }\IeC {\cyri }\IeC {\cyrk }\IeC {\cyro }-\IeC {\cyrerev }\IeC {\cyrk }\IeC {\cyrs }\IeC {\cyrp }\IeC {\cyrl }\IeC {\cyru }\IeC {\cyra }\IeC {\cyrt }\IeC {\cyra }\IeC {\cyrc }\IeC {\cyri }\IeC {\cyro }\IeC {\cyrn }\IeC {\cyrn }\IeC {\cyrery }\IeC {\cyre } \IeC {\cyrp }\IeC {\cyra }\IeC {\cyrr }\IeC {\cyra }\IeC {\cyrm }\IeC {\cyre }\IeC {\cyrt }\IeC {\cyrr }\IeC {\cyrery } Trac-Bitten}}{69}}
\newlabel{tab:kof}{{4.3}{69}}
\@writefile{lot}{\contentsline {table}{\numberline {4.4}{\IeC {\CYRT }\IeC {\cyre }\IeC {\cyrh }\IeC {\cyrn }\IeC {\cyri }\IeC {\cyrk }\IeC {\cyro }-\IeC {\cyrerev }\IeC {\cyrk }\IeC {\cyrs }\IeC {\cyrp }\IeC {\cyrl }\IeC {\cyru }\IeC {\cyra }\IeC {\cyrt }\IeC {\cyra }\IeC {\cyrc }\IeC {\cyri }\IeC {\cyro }\IeC {\cyrn }\IeC {\cyrn }\IeC {\cyrery }\IeC {\cyre } \IeC {\cyrp }\IeC {\cyra }\IeC {\cyrr }\IeC {\cyra }\IeC {\cyrm }\IeC {\cyre }\IeC {\cyrt }\IeC {\cyrr }\IeC {\cyrery } TeamCity}}{69}}
\newlabel{tab:kof}{{4.4}{69}}
\@writefile{toc}{\contentsline {section}{\numberline {4.4}\IeC {\CYRS }\IeC {\cyrt }\IeC {\cyro }\IeC {\cyri }\IeC {\cyrm }\IeC {\cyro }\IeC {\cyrs }\IeC {\cyrt }\IeC {\cyrn }\IeC {\cyra }\IeC {\cyrya } \IeC {\cyro }\IeC {\cyrc }\IeC {\cyre }\IeC {\cyrn }\IeC {\cyrk }\IeC {\cyra } \IeC {\cyra }\IeC {\cyrn }\IeC {\cyra }\IeC {\cyrl }\IeC {\cyro }\IeC {\cyrg }\IeC {\cyra } \IeC {\cyri } \IeC {\cyrr }\IeC {\cyra }\IeC {\cyrz }\IeC {\cyrr }\IeC {\cyra }\IeC {\cyrb }\IeC {\cyro }\IeC {\cyrt }\IeC {\cyrk }\IeC {\cyri }}{70}}
\@writefile{toc}{\contentsline {subsection}{\numberline {4.4.1}\IeC {\CYRO }\IeC {\cyrzh }\IeC {\cyri }\IeC {\cyrd }\IeC {\cyra }\IeC {\cyre }\IeC {\cyrm }\IeC {\cyrery }\IeC {\cyrishrt } \IeC {\cyrerev }\IeC {\cyrk }\IeC {\cyro }\IeC {\cyrn }\IeC {\cyro }\IeC {\cyrm }\IeC {\cyri }\IeC {\cyrch }\IeC {\cyre }\IeC {\cyrs }\IeC {\cyrk }\IeC {\cyri }\IeC {\cyrishrt } \IeC {\cyrerev }\IeC {\cyrf }\IeC {\cyrf }\IeC {\cyre }\IeC {\cyrk }\IeC {\cyrt }}{70}}
\newlabel{eq:econeff}{{(3)}{70}}
\newlabel{eq:yearec}{{(4)}{70}}
\@writefile{toc}{\contentsline {subsection}{\numberline {4.4.2}\IeC {\CYRS }\IeC {\cyro }\IeC {\cyrs }\IeC {\cyrt }\IeC {\cyra }\IeC {\cyrv } \IeC {\cyrerev }\IeC {\cyrk }\IeC {\cyrs }\IeC {\cyrp }\IeC {\cyrl }\IeC {\cyru }\IeC {\cyra }\IeC {\cyrt }\IeC {\cyra }\IeC {\cyrc }\IeC {\cyri }\IeC {\cyro }\IeC {\cyrn }\IeC {\cyrn }\IeC {\cyrery }\IeC {\cyrh } \IeC {\cyrr }\IeC {\cyra }\IeC {\cyrs }\IeC {\cyrh }\IeC {\cyro }\IeC {\cyrd }\IeC {\cyro }\IeC {\cyrv }}{70}}
\@writefile{toc}{\contentsline {subsubsection}{\numberline {4.4.2.1}\IeC {\CYRR }\IeC {\cyra }\IeC {\cyrs }\IeC {\cyrh }\IeC {\cyro }\IeC {\cyrd }\IeC {\cyrery } \IeC {\cyrn }\IeC {\cyra } \IeC {\cyrs }\IeC {\cyro }\IeC {\cyrd }\IeC {\cyre }\IeC {\cyrr }\IeC {\cyrzh }\IeC {\cyra }\IeC {\cyrn }\IeC {\cyri }\IeC {\cyre } \IeC {\cyrp }\IeC {\cyre }\IeC {\cyrr }\IeC {\cyrs }\IeC {\cyro }\IeC {\cyrn }\IeC {\cyra }\IeC {\cyrl }\IeC {\cyra } \IeC {\cyrp }\IeC {\cyro } \IeC {\cyro }\IeC {\cyrb }\IeC {\cyrs }\IeC {\cyrl }\IeC {\cyru }\IeC {\cyrzh }\IeC {\cyri }\IeC {\cyrv }\IeC {\cyra }\IeC {\cyrn }\IeC {\cyri }\IeC {\cyryu }}{70}}
\newlabel{eq:econeff}{{(5)}{70}}
\@writefile{toc}{\contentsline {subsubsection}{\numberline {4.4.2.2}\IeC {\CYRR }\IeC {\cyra }\IeC {\cyrs }\IeC {\cyrh }\IeC {\cyro }\IeC {\cyrd }\IeC {\cyrery } \IeC {\cyrn }\IeC {\cyra } \IeC {\cyrf }\IeC {\cyru }\IeC {\cyrn }\IeC {\cyrk }\IeC {\cyrc }\IeC {\cyri }\IeC {\cyro }\IeC {\cyrn }\IeC {\cyri }\IeC {\cyrr }\IeC {\cyro }\IeC {\cyrv }\IeC {\cyra }\IeC {\cyrn }\IeC {\cyri }\IeC {\cyre } \IeC {\cyrp }\IeC {\cyrr }\IeC {\cyro }\IeC {\cyrg }\IeC {\cyrr }\IeC {\cyra }\IeC {\cyrm }\IeC {\cyrm }\IeC {\cyrery }}{71}}
\newlabel{eq:econeff}{{(6)}{71}}
\@writefile{toc}{\contentsline {subsubsection}{\numberline {4.4.2.3}\IeC {\CYRN }\IeC {\cyra }\IeC {\cyrk }\IeC {\cyrl }\IeC {\cyra }\IeC {\cyrd }\IeC {\cyrn }\IeC {\cyrery }\IeC {\cyre } \IeC {\cyrr }\IeC {\cyra }\IeC {\cyrs }\IeC {\cyrh }\IeC {\cyro }\IeC {\cyrd }\IeC {\cyrery }}{71}}
\@writefile{toc}{\contentsline {subsubsection}{\numberline {4.4.2.4}\IeC {\CYRP }\IeC {\cyrr }\IeC {\cyro }\IeC {\cyrch }\IeC {\cyri }\IeC {\cyre } \IeC {\cyrr }\IeC {\cyra }\IeC {\cyrs }\IeC {\cyrh }\IeC {\cyro }\IeC {\cyrd }\IeC {\cyrery }}{72}}
\@writefile{toc}{\contentsline {subsection}{\numberline {4.4.3}\IeC {\CYREREV }\IeC {\cyrk }\IeC {\cyro }\IeC {\cyrn }\IeC {\cyro }\IeC {\cyrm }\IeC {\cyri }\IeC {\cyrya } \IeC {\cyro }\IeC {\cyrt } \IeC {\cyru }\IeC {\cyrv }\IeC {\cyre }\IeC {\cyrl }\IeC {\cyri }\IeC {\cyrch }\IeC {\cyre }\IeC {\cyrn }\IeC {\cyri }\IeC {\cyrya } \IeC {\cyrp }\IeC {\cyrr }\IeC {\cyro }\IeC {\cyri }\IeC {\cyrz }\IeC {\cyrv }\IeC {\cyro }\IeC {\cyrd }\IeC {\cyri }\IeC {\cyrt }\IeC {\cyre }\IeC {\cyrl }\IeC {\cyrsftsn }\IeC {\cyrn }\IeC {\cyro }\IeC {\cyrs }\IeC {\cyrt }\IeC {\cyri } \IeC {\cyrt }\IeC {\cyrr }\IeC {\cyru }\IeC {\cyrd }\IeC {\cyra } \IeC {\cyrp }\IeC {\cyro }\IeC {\cyrl }\IeC {\cyrsftsn }\IeC {\cyrz }\IeC {\cyro }\IeC {\cyrv }\IeC {\cyra }\IeC {\cyrt }\IeC {\cyre }\IeC {\cyrl }\IeC {\cyrya }}{72}}
\newlabel{eq:increasjob}{{(7)}{72}}
\newlabel{eq:increasjobeconomy}{{(8)}{72}}
\gdef \LT@viii {\LT@entry 
    {1}{268.87479pt}\LT@entry 
    {1}{69.3055pt}\LT@entry 
    {1}{69.3055pt}\LT@entry 
    {1}{89.22234pt}}
\@writefile{toc}{\contentsline {subsection}{\numberline {4.4.4}\IeC {\CYRZ }\IeC {\cyra }\IeC {\cyrt }\IeC {\cyrr }\IeC {\cyra }\IeC {\cyrt }\IeC {\cyrery } \IeC {\cyrn }\IeC {\cyra } \IeC {\cyrerev }\IeC {\cyrt }\IeC {\cyra }\IeC {\cyrp }\IeC {\cyre } \IeC {\cyrp }\IeC {\cyrr }\IeC {\cyro }\IeC {\cyre }\IeC {\cyrk }\IeC {\cyrt }\IeC {\cyri }\IeC {\cyrr }\IeC {\cyro }\IeC {\cyrv }\IeC {\cyra }\IeC {\cyrn }\IeC {\cyri }\IeC {\cyrya }}{73}}
\newlabel{eq:proectpaid}{{(9)}{73}}
\@writefile{lot}{\contentsline {table}{\numberline {4.5}{\IeC {\CYRP }\IeC {\cyrr }\IeC {\cyro }\IeC {\cyrd }\IeC {\cyro }\IeC {\cyrl }\IeC {\cyrzh }\IeC {\cyri }\IeC {\cyrt }\IeC {\cyre }\IeC {\cyrl }\IeC {\cyrsftsn }\IeC {\cyrn }\IeC {\cyro }\IeC {\cyrs }\IeC {\cyrt }\IeC {\cyrsftsn } \IeC {\cyrr }\IeC {\cyra }\IeC {\cyrb }\IeC {\cyro }\IeC {\cyrt }}}{73}}
\newlabel{tab:workcont}{{4.5}{73}}
\newlabel{eq:captpaid}{{(10)}{74}}
\newlabel{eq:developpaid}{{(11)}{74}}
\@writefile{toc}{\contentsline {subsection}{\numberline {4.4.5}\IeC {\CYRO }\IeC {\cyrp }\IeC {\cyrr }\IeC {\cyre }\IeC {\cyrd }\IeC {\cyre }\IeC {\cyrl }\IeC {\cyre }\IeC {\cyrn }\IeC {\cyri }\IeC {\cyre } \IeC {\cyrc }\IeC {\cyre }\IeC {\cyrn }\IeC {\cyrery } \IeC {\cyrp }\IeC {\cyrr }\IeC {\cyro }\IeC {\cyrg }\IeC {\cyrr }\IeC {\cyra }\IeC {\cyrm }\IeC {\cyrm }\IeC {\cyrn }\IeC {\cyro }\IeC {\cyrg }\IeC {\cyro } \IeC {\cyrp }\IeC {\cyrr }\IeC {\cyro }\IeC {\cyrd }\IeC {\cyru }\IeC {\cyrk }\IeC {\cyrt }\IeC {\cyra }}{74}}
\@writefile{toc}{\contentsline {subsection}{\numberline {4.4.6}\IeC {\CYRR }\IeC {\cyre }\IeC {\cyrn }\IeC {\cyrt }\IeC {\cyra }\IeC {\cyrb }\IeC {\cyre }\IeC {\cyrl }\IeC {\cyrsftsn }\IeC {\cyrn }\IeC {\cyro }\IeC {\cyrs }\IeC {\cyrt }\IeC {\cyrsftsn } \IeC {\cyrp }\IeC {\cyrr }\IeC {\cyro }\IeC {\cyrd }\IeC {\cyru }\IeC {\cyrk }\IeC {\cyrt }\IeC {\cyra }}{75}}
\@writefile{lof}{\contentsline {figure}{\numberline {4.4}{\ignorespaces  \IeC {\CYRG }\IeC {\cyrr }\IeC {\cyra }\IeC {\cyrf }\IeC {\cyri }\IeC {\cyrk } \IeC {\cyrs }\IeC {\cyro }\IeC {\cyro }\IeC {\cyrt }\IeC {\cyrn }\IeC {\cyro }\IeC {\cyrsh }\IeC {\cyre }\IeC {\cyrn }\IeC {\cyri }\IeC {\cyrya } \IeC {\cyrz }\IeC {\cyra }\IeC {\cyrt }\IeC {\cyrr }\IeC {\cyra }\IeC {\cyrt } \IeC {\cyri } \IeC {\cyro }\IeC {\cyrzh }\IeC {\cyri }\IeC {\cyrd }\IeC {\cyra }\IeC {\cyre }\IeC {\cyrm }\IeC {\cyro }\IeC {\cyrishrt } \IeC {\cyrp }\IeC {\cyrr }\IeC {\cyri }\IeC {\cyrb }\IeC {\cyrery }\IeC {\cyrl }\IeC {\cyri } }}{75}}
\FN@pp@footnotehinttrue 
\FN@pp@footnotehinttrue 
\@writefile{toc}{\contentsline {chapter}{\numberline {5}\IeC {\CYRB }\IeC {\cyre }\IeC {\cyrz }\IeC {\cyro }\IeC {\cyrp }\IeC {\cyra }\IeC {\cyrs }\IeC {\cyrn }\IeC {\cyro }\IeC {\cyrs }\IeC {\cyrt }\IeC {\cyrsftsn } \IeC {\cyri } \IeC {\cyrerev }\IeC {\cyrk }\IeC {\cyro }\IeC {\cyrl }\IeC {\cyro }\IeC {\cyrg }\IeC {\cyri }\IeC {\cyrch }\IeC {\cyrn }\IeC {\cyro }\IeC {\cyrs }\IeC {\cyrt }\IeC {\cyrsftsn } \IeC {\cyrp }\IeC {\cyrr }\IeC {\cyro }\IeC {\cyre }\IeC {\cyrk }\IeC {\cyrt }\IeC {\cyra }}{76}}
\@writefile{toc}{\contentsline {section}{\numberline {5.1}\IeC {\CYRA }\IeC {\cyrn }\IeC {\cyra }\IeC {\cyrl }\IeC {\cyri }\IeC {\cyrz } \IeC {\cyru }\IeC {\cyrs }\IeC {\cyrl }\IeC {\cyro }\IeC {\cyrv }\IeC {\cyri }\IeC {\cyrishrt } \IeC {\cyrt }\IeC {\cyrr }\IeC {\cyru }\IeC {\cyrd }\IeC {\cyra } \IeC {\cyrp }\IeC {\cyrr }\IeC {\cyri } \IeC {\cyrp }\IeC {\cyrr }\IeC {\cyro }\IeC {\cyre }\IeC {\cyrk }\IeC {\cyrt }\IeC {\cyri }\IeC {\cyrr }\IeC {\cyro }\IeC {\cyrv }\IeC {\cyra }\IeC {\cyrn }\IeC {\cyri }\IeC {\cyri } \IeC {\cyri } \IeC {\cyrh }\IeC {\cyra }\IeC {\cyrr }\IeC {\cyra }\IeC {\cyrk }\IeC {\cyrt }\IeC {\cyre }\IeC {\cyrr }\IeC {\cyri }\IeC {\cyrs }\IeC {\cyrt }\IeC {\cyri }\IeC {\cyrk }\IeC {\cyra } \IeC {\cyrv }\IeC {\cyrery }\IeC {\cyrp }\IeC {\cyro }\IeC {\cyrl }\IeC {\cyrn }\IeC {\cyrya }\IeC {\cyre }\IeC {\cyrm }\IeC {\cyrery }\IeC {\cyrh } \IeC {\cyrr }\IeC {\cyra }\IeC {\cyrb }\IeC {\cyro }\IeC {\cyrt }}{76}}
\gdef \LT@ix {\LT@entry 
    {1}{211.96927pt}\LT@entry 
    {1}{97.75826pt}\LT@entry 
    {1}{97.75826pt}\LT@entry 
    {1}{97.75826pt}}
\gdef \LT@x {\LT@entry 
    {1}{211.96927pt}\LT@entry 
    {2}{97.75826pt}\LT@entry 
    {2}{97.75826pt}\LT@entry 
    {1}{97.75826pt}}
\@writefile{lot}{\contentsline {table}{\numberline {5.1}{\IeC {\CYRP }\IeC {\cyro }\IeC {\cyrk }\IeC {\cyra }\IeC {\cyrz }\IeC {\cyra }\IeC {\cyrt }\IeC {\cyre }\IeC {\cyrl }\IeC {\cyri } \IeC {\cyro }\IeC {\cyrp }\IeC {\cyra }\IeC {\cyrs }\IeC {\cyrn }\IeC {\cyro }\IeC {\cyrs }\IeC {\cyrt }\IeC {\cyri } \IeC {\cyri } \IeC {\cyrv }\IeC {\cyrr }\IeC {\cyre }\IeC {\cyrd }\IeC {\cyrn }\IeC {\cyro }\IeC {\cyrs }\IeC {\cyrt }\IeC {\cyri } \IeC {\cyrp }\IeC {\cyrr }\IeC {\cyro }\IeC {\cyri }\IeC {\cyrz }\IeC {\cyrv }\IeC {\cyro }\IeC {\cyrd }\IeC {\cyrs }\IeC {\cyrt }\IeC {\cyrv }\IeC {\cyre }\IeC {\cyrn }\IeC {\cyrn }\IeC {\cyro }\IeC {\cyrishrt } \IeC {\cyrs }\IeC {\cyrr }\IeC {\cyre }\IeC {\cyrd }\IeC {\cyrery }.}}{78}}
\newlabel{tab:comp}{{5.1}{78}}
\@writefile{lot}{\contentsline {table}{\numberline {5.2}{\IeC {\CYRP }\IeC {\cyro }\IeC {\cyrk }\IeC {\cyra }\IeC {\cyrz }\IeC {\cyra }\IeC {\cyrt }\IeC {\cyre }\IeC {\cyrl }\IeC {\cyri } \IeC {\cyro }\IeC {\cyrp }\IeC {\cyra }\IeC {\cyrs }\IeC {\cyrn }\IeC {\cyro }\IeC {\cyrs }\IeC {\cyrt }\IeC {\cyri } \IeC {\cyri } \IeC {\cyrv }\IeC {\cyrr }\IeC {\cyre }\IeC {\cyrd }\IeC {\cyrn }\IeC {\cyro }\IeC {\cyrs }\IeC {\cyrt }\IeC {\cyri } \IeC {\cyrp }\IeC {\cyrr }\IeC {\cyro }\IeC {\cyri }\IeC {\cyrz }\IeC {\cyrv }\IeC {\cyro }\IeC {\cyrd }\IeC {\cyrs }\IeC {\cyrt }\IeC {\cyrv }\IeC {\cyre }\IeC {\cyrn }\IeC {\cyrn }\IeC {\cyro }\IeC {\cyrishrt } \IeC {\cyrs }\IeC {\cyrr }\IeC {\cyre }\IeC {\cyrd }\IeC {\cyrery }.}}{78}}
\newlabel{tab:nagr}{{5.2}{78}}
\@writefile{lot}{\contentsline {table}{\numberline {5.3}{\IeC {\CYRO }\IeC {\cyrc }\IeC {\cyre }\IeC {\cyrn }\IeC {\cyrk }\IeC {\cyra } \IeC {\cyrn }\IeC {\cyra }\IeC {\cyrp }\IeC {\cyrr }\IeC {\cyrya }\IeC {\cyrzh }\IeC {\cyre }\IeC {\cyrn }\IeC {\cyrn }\IeC {\cyro }\IeC {\cyrs }\IeC {\cyrt }\IeC {\cyri } \IeC {\cyrt }\IeC {\cyrr }\IeC {\cyru }\IeC {\cyrd }\IeC {\cyra } \IeC {\cyrr }\IeC {\cyra }\IeC {\cyrb }\IeC {\cyro }\IeC {\cyrt }\IeC {\cyrn }\IeC {\cyri }\IeC {\cyrk }\IeC {\cyra }.}}{79}}
\newlabel{tab:opas}{{5.3}{79}}
\gdef \LT@xi {\LT@entry 
    {1}{211.96927pt}\LT@entry 
    {1}{97.75826pt}\LT@entry 
    {1}{97.75826pt}\LT@entry 
    {1}{97.75826pt}}
\@writefile{toc}{\contentsline {subsection}{\numberline {5.1.1}\IeC {\CYRO }\IeC {\cyrr }\IeC {\cyrg }\IeC {\cyra }\IeC {\cyrn }\IeC {\cyri }\IeC {\cyrz }\IeC {\cyra }\IeC {\cyrc }\IeC {\cyri }\IeC {\cyrya } \IeC {\cyrr }\IeC {\cyra }\IeC {\cyrb }\IeC {\cyro }\IeC {\cyrch }\IeC {\cyre }\IeC {\cyrg }\IeC {\cyro } \IeC {\cyrm }\IeC {\cyre }\IeC {\cyrs }\IeC {\cyrt }\IeC {\cyra } \IeC {\cyrv } \IeC {\cyrl }\IeC {\cyra }\IeC {\cyrb }\IeC {\cyro }\IeC {\cyrr }\IeC {\cyra }\IeC {\cyrt }\IeC {\cyro }\IeC {\cyrr }\IeC {\cyri }\IeC {\cyri }}{82}}
\newlabel{eq:state}{{(12)}{82}}
\newlabel{eq:veb}{{(13)}{83}}
\newlabel{eq:spol}{{(14)}{83}}
\newlabel{eq:spol}{{(15)}{83}}
\@writefile{toc}{\contentsline {subsection}{\numberline {5.1.2}\IeC {\CYRM }\IeC {\cyri }\IeC {\cyrk }\IeC {\cyrr }\IeC {\cyro }\IeC {\cyrk }\IeC {\cyrl }\IeC {\cyri }\IeC {\cyrm }\IeC {\cyra }\IeC {\cyrt } \IeC {\cyrn }\IeC {\cyra } \IeC {\cyrr }\IeC {\cyra }\IeC {\cyrb }\IeC {\cyro }\IeC {\cyrch }\IeC {\cyre }\IeC {\cyrm } \IeC {\cyrm }\IeC {\cyre }\IeC {\cyrs }\IeC {\cyrt }\IeC {\cyre }}{83}}
\@writefile{toc}{\contentsline {subsection}{\numberline {5.1.3}\IeC {\CYRSH }\IeC {\cyru }\IeC {\cyrm }\IeC {\cyro }\IeC {\cyrv }\IeC {\cyra }\IeC {\cyrya } \IeC {\cyro }\IeC {\cyrb }\IeC {\cyrs }\IeC {\cyrt }\IeC {\cyra }\IeC {\cyrn }\IeC {\cyro }\IeC {\cyrv }\IeC {\cyrk }\IeC {\cyra } \IeC {\cyrn }\IeC {\cyra } \IeC {\cyrr }\IeC {\cyra }\IeC {\cyrb }\IeC {\cyro }\IeC {\cyrch }\IeC {\cyre }\IeC {\cyrm } \IeC {\cyrm }\IeC {\cyre }\IeC {\cyrs }\IeC {\cyrt }\IeC {\cyre }}{84}}
\@writefile{toc}{\contentsline {subsection}{\numberline {5.1.4}\IeC {\CYRV }\IeC {\cyre }\IeC {\cyrn }\IeC {\cyrt }\IeC {\cyri }\IeC {\cyrl }\IeC {\cyrya }\IeC {\cyrc }\IeC {\cyri }\IeC {\cyrya }}{84}}
\@writefile{toc}{\contentsline {subsection}{\numberline {5.1.5}\IeC {\CYRA }\IeC {\cyrn }\IeC {\cyra }\IeC {\cyrl }\IeC {\cyri }\IeC {\cyrz } \IeC {\cyro }\IeC {\cyrs }\IeC {\cyrv }\IeC {\cyre }\IeC {\cyrshch }\IeC {\cyre }\IeC {\cyrn }\IeC {\cyrn }\IeC {\cyro }\IeC {\cyrs }\IeC {\cyrt }\IeC {\cyri } \IeC {\cyrr }\IeC {\cyra }\IeC {\cyrb }\IeC {\cyro }\IeC {\cyrch }\IeC {\cyre }\IeC {\cyrg }\IeC {\cyro } \IeC {\cyrm }\IeC {\cyre }\IeC {\cyrs }\IeC {\cyrt }\IeC {\cyra }}{84}}
\@writefile{toc}{\contentsline {subsection}{\numberline {5.1.6}\IeC {\CYRP }\IeC {\cyrr }\IeC {\cyro }\IeC {\cyrm }\IeC {\cyrery }\IeC {\cyrsh }\IeC {\cyrl }\IeC {\cyre }\IeC {\cyrn }\IeC {\cyrn }\IeC {\cyra }\IeC {\cyrya } \IeC {\cyri } \IeC {\cyrb }\IeC {\cyrery }\IeC {\cyrt }\IeC {\cyro }\IeC {\cyrv }\IeC {\cyra }\IeC {\cyrya } \IeC {\cyrp }\IeC {\cyrery }\IeC {\cyrl }\IeC {\cyrsftsn }}{85}}
\@writefile{toc}{\contentsline {subsection}{\numberline {5.1.7}\IeC {\CYREREV }\IeC {\cyrl }\IeC {\cyre }\IeC {\cyrk }\IeC {\cyrt }\IeC {\cyrr }\IeC {\cyro }\IeC {\cyrb }\IeC {\cyre }\IeC {\cyrz }\IeC {\cyro }\IeC {\cyrp }\IeC {\cyra }\IeC {\cyrs }\IeC {\cyrn }\IeC {\cyro }\IeC {\cyrs }\IeC {\cyrt }\IeC {\cyrsftsn }}{85}}
\@writefile{toc}{\contentsline {subsection}{\numberline {5.1.8}\IeC {\CYRP }\IeC {\cyro }\IeC {\cyrzh }\IeC {\cyra }\IeC {\cyrr }\IeC {\cyrn }\IeC {\cyra }\IeC {\cyrya } \IeC {\cyrb }\IeC {\cyre }\IeC {\cyrz }\IeC {\cyro }\IeC {\cyrp }\IeC {\cyra }\IeC {\cyrs }\IeC {\cyrn }\IeC {\cyro }\IeC {\cyrs }\IeC {\cyrt }\IeC {\cyrsftsn } \IeC {\cyrv } \IeC {\cyrp }\IeC {\cyro }\IeC {\cyrm }\IeC {\cyre }\IeC {\cyrshch }\IeC {\cyre }\IeC {\cyrn }\IeC {\cyri }\IeC {\cyri }}{85}}
\@writefile{toc}{\contentsline {section}{\numberline {5.2}\IeC {\CYREREV }\IeC {\cyrk }\IeC {\cyro }\IeC {\cyrl }\IeC {\cyro }\IeC {\cyrg }\IeC {\cyri }\IeC {\cyrch }\IeC {\cyrn }\IeC {\cyro }\IeC {\cyrs }\IeC {\cyrt }\IeC {\cyrsftsn } \IeC {\cyrp }\IeC {\cyrr }\IeC {\cyro }\IeC {\cyre }\IeC {\cyrk }\IeC {\cyrt }\IeC {\cyra }}{86}}
\FN@pp@footnotehinttrue 
\FN@pp@footnotehinttrue 
\@writefile{toc}{\contentsline {chapter}{\CYRZ \CYRA \CYRK \CYRL \CYRYU \CYRCH \CYRE \CYRN \CYRI \CYRE }{89}}
\FN@pp@footnotehinttrue 
\citation{*}
\bibdata{diplom}
\bibcite{tpobusiness}{1}
\bibcite{testingintro}{2}
\bibcite{RUP_TP}{3}
\bibcite{IEEE829}{4}
\bibcite{testerknow}{5}
\bibcite{testingro}{6}
\bibcite{autotest}{7}
\bibcite{icmpattack}{8}
\bibcite{rfc1122}{9}
\bibcite{sqlvspsg}{10}
\FN@pp@footnotehinttrue 
\@writefile{toc}{\contentsline {chapter}{\CYRS \CYRP \CYRI \CYRS \CYRO \CYRK ~ \CYRI \CYRS \CYRP \CYRO \CYRL \CYRSFTSN \CYRZ \CYRO \CYRV \CYRA \CYRN \CYRN \CYRERY \CYRH ~ \CYRI \CYRS \CYRT \CYRO \CYRCH \CYRN \CYRI \CYRK \CYRO \CYRV }{90}}
\FN@pp@footnotehinttrue 
\@writefile{toc}{\contentsline {section}{\IeC {\CYRP }\IeC {\CYRR }\IeC {\CYRI }\IeC {\CYRL }\IeC {\CYRO }\IeC {\CYRZH }\IeC {\CYRE }\IeC {\CYRN }\IeC {\CYRI }\IeC {\CYRE }~\CYRA .\,\IeC {\CYRS }\IeC {\cyrp }\IeC {\cyre }\IeC {\cyrc }\IeC {\cyri }\IeC {\cyrf }\IeC {\cyri }\IeC {\cyrk }\IeC {\cyra }\IeC {\cyrc }\IeC {\cyri }\IeC {\cyrya }}{91}}
\newlabel{apx:Spec}{{\CYRA .\,}{91}}
\FN@pp@footnotehinttrue 
\@writefile{toc}{\contentsline {section}{\IeC {\CYRP }\IeC {\CYRR }\IeC {\CYRI }\IeC {\CYRL }\IeC {\CYRO }\IeC {\CYRZH }\IeC {\CYRE }\IeC {\CYRN }\IeC {\CYRI }\IeC {\CYRE }~\CYRB .\,\IeC {\CYRR }\IeC {\cyru }\IeC {\cyrk }\IeC {\cyro }\IeC {\cyrv }\IeC {\cyro }\IeC {\cyrd }\IeC {\cyrs }\IeC {\cyrt }\IeC {\cyrv }\IeC {\cyro } \IeC {\cyro }\IeC {\cyrp }\IeC {\cyre }\IeC {\cyrr }\IeC {\cyra }\IeC {\cyrt }\IeC {\cyro }\IeC {\cyrr }\IeC {\cyra }}{92}}
\newlabel{apx:user}{{\CYRB .\,}{92}}
\FN@pp@footnotehinttrue 
\@writefile{toc}{\contentsline {section}{\IeC {\CYRP }\IeC {\CYRR }\IeC {\CYRI }\IeC {\CYRL }\IeC {\CYRO }\IeC {\CYRZH }\IeC {\CYRE }\IeC {\CYRN }\IeC {\CYRI }\IeC {\CYRE }~\CYRV .\,\IeC {\CYRR }\IeC {\cyru }\IeC {\cyrk }\IeC {\cyro }\IeC {\cyrv }\IeC {\cyro }\IeC {\cyrd }\IeC {\cyrs }\IeC {\cyrt }\IeC {\cyrv }\IeC {\cyro } \IeC {\cyrp }\IeC {\cyrr }\IeC {\cyro }\IeC {\cyrg }\IeC {\cyrr }\IeC {\cyra }\IeC {\cyrm }\IeC {\cyrm }\IeC {\cyri }\IeC {\cyrs }\IeC {\cyrt }\IeC {\cyra }}{94}}
\newlabel{apx:prog}{{\CYRV .\,}{94}}
\FN@pp@footnotehinttrue 
\newlabel{LastPage}{{}{96}}
\expandafter\ifx\csname c@figurecnt@totc\endcsname\relax\newcounter{figurecnt@totc}\fi\setcounter{figurecnt@totc}{13}
\expandafter\ifx\csname c@tablecnt@totc\endcsname\relax\newcounter{tablecnt@totc}\fi\setcounter{tablecnt@totc}{11}
\expandafter\ifx\csname c@citeitem@totc\endcsname\relax\newcounter{citeitem@totc}\fi\setcounter{citeitem@totc}{0}
\expandafter\ifx\csname c@page@totc\endcsname\relax\newcounter{page@totc}\fi\setcounter{page@totc}{97}
\expandafter\ifx\csname c@sect@totc\endcsname\relax\newcounter{sect@totc}\fi\setcounter{sect@totc}{3}
