%!PS-Adobe-2.0 EPSF-2.0
%%Title: /home/dmitry/Documents/Диаграмма1.dia
%%Creator: Dia v0.97.2
%%CreationDate: Tue May  8 20:35:11 2012
%%For: dmitry
%%Orientation: Portrait
%%Magnification: 1.0000
%%BoundingBox: 0 0 364 278
%%BeginSetup
%%EndSetup
%%EndComments
%%BeginProlog
[ /.notdef /.notdef /.notdef /.notdef /.notdef /.notdef /.notdef /.notdef /.notdef /.notdef
/.notdef /.notdef /.notdef /.notdef /.notdef /.notdef /.notdef /.notdef /.notdef /.notdef
/.notdef /.notdef /.notdef /.notdef /.notdef /.notdef /.notdef /.notdef /.notdef /.notdef
/.notdef /.notdef /space /exclam /quotedbl /numbersign /dollar /percent /ampersand /quoteright
/parenleft /parenright /asterisk /plus /comma /hyphen /period /slash /zero /one
/two /three /four /five /six /seven /eight /nine /colon /semicolon
/less /equal /greater /question /at /A /B /C /D /E
/F /G /H /I /J /K /L /M /N /O
/P /Q /R /S /T /U /V /W /X /Y
/Z /bracketleft /backslash /bracketright /asciicircum /underscore /quoteleft /a /b /c
/d /e /f /g /h /i /j /k /l /m
/n /o /p /q /r /s /t /u /v /w
/x /y /z /braceleft /bar /braceright /asciitilde /.notdef /.notdef /.notdef
/.notdef /.notdef /.notdef /.notdef /.notdef /.notdef /.notdef /.notdef /.notdef /.notdef
/.notdef /.notdef /.notdef /.notdef /.notdef /.notdef /.notdef /.notdef /.notdef /.notdef
/.notdef /.notdef /.notdef /.notdef /.notdef /.notdef /.notdef /.notdef /.notdef /.notdef
/space /exclamdown /cent /sterling /currency /yen /brokenbar /section /dieresis /copyright
/ordfeminine /guillemotleft /logicalnot /hyphen /registered /macron /degree /plusminus /twosuperior /threesuperior
/acute /mu /paragraph /periodcentered /cedilla /onesuperior /ordmasculine /guillemotright /onequarter /onehalf
/threequarters /questiondown /Agrave /Aacute /Acircumflex /Atilde /Adieresis /Aring /AE /Ccedilla
/Egrave /Eacute /Ecircumflex /Edieresis /Igrave /Iacute /Icircumflex /Idieresis /Eth /Ntilde
/Ograve /Oacute /Ocircumflex /Otilde /Odieresis /multiply /Oslash /Ugrave /Uacute /Ucircumflex
/Udieresis /Yacute /Thorn /germandbls /agrave /aacute /acircumflex /atilde /adieresis /aring
/ae /ccedilla /egrave /eacute /ecircumflex /edieresis /igrave /iacute /icircumflex /idieresis
/eth /ntilde /ograve /oacute /ocircumflex /otilde /odieresis /divide /oslash /ugrave
/uacute /ucircumflex /udieresis /yacute /thorn /ydieresis] /isolatin1encoding exch def
/cp {closepath} bind def
/c {curveto} bind def
/f {fill} bind def
/a {arc} bind def
/ef {eofill} bind def
/ex {exch} bind def
/gr {grestore} bind def
/gs {gsave} bind def
/sa {save} bind def
/rs {restore} bind def
/l {lineto} bind def
/m {moveto} bind def
/rm {rmoveto} bind def
/n {newpath} bind def
/s {stroke} bind def
/sh {show} bind def
/slc {setlinecap} bind def
/slj {setlinejoin} bind def
/slw {setlinewidth} bind def
/srgb {setrgbcolor} bind def
/rot {rotate} bind def
/sc {scale} bind def
/sd {setdash} bind def
/ff {findfont} bind def
/sf {setfont} bind def
/scf {scalefont} bind def
/sw {stringwidth pop} bind def
/tr {translate} bind def

/ellipsedict 8 dict def
ellipsedict /mtrx matrix put
/ellipse
{ ellipsedict begin
   /endangle exch def
   /startangle exch def
   /yrad exch def
   /xrad exch def
   /y exch def
   /x exch def   /savematrix mtrx currentmatrix def
   x y tr xrad yrad sc
   0 0 1 startangle endangle arc
   savematrix setmatrix
   end
} def

/mergeprocs {
dup length
3 -1 roll
dup
length
dup
5 1 roll
3 -1 roll
add
array cvx
dup
3 -1 roll
0 exch
putinterval
dup
4 2 roll
putinterval
} bind def
/dpi_x 300 def
/dpi_y 300 def
/conicto {
    /to_y exch def
    /to_x exch def
    /conic_cntrl_y exch def
    /conic_cntrl_x exch def
    currentpoint
    /p0_y exch def
    /p0_x exch def
    /p1_x p0_x conic_cntrl_x p0_x sub 2 3 div mul add def
    /p1_y p0_y conic_cntrl_y p0_y sub 2 3 div mul add def
    /p2_x p1_x to_x p0_x sub 1 3 div mul add def
    /p2_y p1_y to_y p0_y sub 1 3 div mul add def
    p1_x p1_y p2_x p2_y to_x to_y curveto
} bind def
/start_ol { gsave 1.1 dpi_x div dup scale} bind def
/end_ol { closepath fill grestore } bind def
28.346000 -28.346000 scale
-17.243582 -10.184855 translate
%%EndProlog


0.100000 slw
[] 0 sd
[] 0 sd
0 slc
0 slj
0.001000 slw
0 slc
0 slj
[] 0 sd
0.717647 0.717647 0.615686 srgb
n 17.244836 7.390680 m 19.243262 7.390680 l 19.243262 7.760013 l 17.244836 7.760013 l 17.244836 7.390680 l ef
0 slc
0 slj
[] 0 sd
0.286275 0.286275 0.211765 srgb
n 17.244836 7.390680 m 19.243262 7.390680 l 19.243262 7.760013 l 17.244836 7.760013 l 17.244836 7.390680 l s
0 slc
0 slj
[] 0 sd
0.788235 0.788235 0.713726 srgb
n 17.244836 7.390680 m 17.456738 7.189798 l 19.455164 7.189798 l 19.243262 7.390680 l 17.244836 7.390680 l ef
0 slc
0 slj
[] 0 sd
0.286275 0.286275 0.211765 srgb
n 17.244836 7.390680 m 17.456738 7.189798 l 19.455164 7.189798 l 19.243262 7.390680 l 17.244836 7.390680 l s
0.106000 slw
0 slc
0 slj
[] 0 sd
0.000000 0.000000 0.000000 srgb
n 19.131486 7.558816 m 18.651952 7.558816 l s
0.001000 slw
0 slc
0 slj
[] 0 sd
0.478431 0.478431 0.352941 srgb
n 19.243262 7.760013 m 19.455164 7.547481 l 19.455164 7.189798 l 19.243262 7.390680 l 19.243262 7.760013 l ef
0 slc
0 slj
[] 0 sd
0.286275 0.286275 0.211765 srgb
n 19.243262 7.760013 m 19.455164 7.547481 l 19.455164 7.189798 l 19.243262 7.390680 l 19.243262 7.760013 l s
0 slc
0 slj
[] 0 sd
0.788235 0.788235 0.713726 srgb
n 17.256171 7.994270 m 17.479093 7.714987 l 19.020025 7.714987 l 18.797103 7.994270 l 17.256171 7.994270 l ef
0 slc
0 slj
[] 0 sd
0.286275 0.286275 0.211765 srgb
n 17.256171 7.994270 m 17.479093 7.714987 l 19.020025 7.714987 l 18.797103 7.994270 l 17.256171 7.994270 l s
0 slc
0 slj
[] 0 sd
0.478431 0.478431 0.352941 srgb
n 18.797103 8.050000 m 19.020025 7.815743 l 19.020025 7.714987 l 18.797103 7.994270 l 18.797103 8.050000 l ef
0 slc
0 slj
[] 0 sd
0.286275 0.286275 0.211765 srgb
n 18.797103 8.050000 m 19.020025 7.815743 l 19.020025 7.714987 l 18.797103 7.994270 l 18.797103 8.050000 l s
0 slc
0 slj
[] 0 sd
0.717647 0.717647 0.615686 srgb
n 17.256171 7.994270 m 18.797103 7.994270 l 18.797103 8.050000 l 17.256171 8.050000 l 17.256171 7.994270 l ef
0 slc
0 slj
[] 0 sd
0.286275 0.286275 0.211765 srgb
n 17.256171 7.994270 m 18.797103 7.994270 l 18.797103 8.050000 l 17.256171 8.050000 l 17.256171 7.994270 l s
0 slc
0 slj
[] 0 sd
0.000000 0.000000 0.000000 srgb
n 17.546159 7.346285 m 17.713980 7.189798 l 19.131486 7.189798 l 18.975630 7.346285 l 17.546159 7.346285 l ef
0 slc
0 slj
[] 0 sd
n 17.546159 7.346285 m 17.713980 7.189798 l 19.131486 7.189798 l 18.975630 7.346285 l 17.546159 7.346285 l s
0 slc
0 slj
[] 0 sd
0.788235 0.788235 0.713726 srgb
n 17.534824 6.195151 m 17.691625 6.050000 l 19.109761 6.050000 l 18.952960 6.195151 l 17.534824 6.195151 l ef
0 slc
0 slj
[] 0 sd
0.286275 0.286275 0.211765 srgb
n 17.534824 6.195151 m 17.691625 6.050000 l 19.109761 6.050000 l 18.952960 6.195151 l 17.534824 6.195151 l s
0 slc
0 slj
[] 0 sd
0.717647 0.717647 0.615686 srgb
n 17.534824 6.195151 m 18.964295 6.195151 l 18.964295 7.323615 l 17.534824 7.323615 l 17.534824 6.195151 l ef
0 slc
0 slj
[] 0 sd
0.286275 0.286275 0.211765 srgb
n 17.534824 6.195151 m 18.963665 6.195151 l 18.963665 7.323300 l 17.534824 7.323300 l 17.534824 6.195151 l s
0 slc
0 slj
[] 0 sd
1.000000 1.000000 1.000000 srgb
n 17.657620 6.339987 m 18.841184 6.339987 l 18.841184 7.211839 l 17.657620 7.211839 l 17.657620 6.339987 l ef
0 slc
0 slj
[] 0 sd
0.286275 0.286275 0.211765 srgb
n 17.657620 6.339987 m 18.841184 6.339987 l 18.841184 7.211524 l 17.657620 7.211524 l 17.657620 6.339987 l s
0 slc
0 slj
[] 0 sd
0.478431 0.478431 0.352941 srgb
n 18.952960 7.312909 m 19.109761 7.156423 l 19.109761 6.050000 l 18.952960 6.195151 l 18.952960 7.312909 l ef
0 slc
0 slj
[] 0 sd
0.286275 0.286275 0.211765 srgb
n 18.952960 7.312909 m 19.109761 7.156423 l 19.109761 6.050000 l 18.952960 6.195151 l 18.952960 7.312909 l s
0.100000 slw
[] 0 sd
[] 0 sd
0 slc
0 slj
0.001000 slw
0 slc
0 slj
[] 0 sd
0.717647 0.717647 0.615686 srgb
n 22.194836 7.490680 m 24.193262 7.490680 l 24.193262 7.860013 l 22.194836 7.860013 l 22.194836 7.490680 l ef
0 slc
0 slj
[] 0 sd
0.286275 0.286275 0.211765 srgb
n 22.194836 7.490680 m 24.193262 7.490680 l 24.193262 7.860013 l 22.194836 7.860013 l 22.194836 7.490680 l s
0 slc
0 slj
[] 0 sd
0.788235 0.788235 0.713726 srgb
n 22.194836 7.490680 m 22.406738 7.289798 l 24.405164 7.289798 l 24.193262 7.490680 l 22.194836 7.490680 l ef
0 slc
0 slj
[] 0 sd
0.286275 0.286275 0.211765 srgb
n 22.194836 7.490680 m 22.406738 7.289798 l 24.405164 7.289798 l 24.193262 7.490680 l 22.194836 7.490680 l s
0.106000 slw
0 slc
0 slj
[] 0 sd
0.000000 0.000000 0.000000 srgb
n 24.081486 7.658816 m 23.601952 7.658816 l s
0.001000 slw
0 slc
0 slj
[] 0 sd
0.478431 0.478431 0.352941 srgb
n 24.193262 7.860013 m 24.405164 7.647481 l 24.405164 7.289798 l 24.193262 7.490680 l 24.193262 7.860013 l ef
0 slc
0 slj
[] 0 sd
0.286275 0.286275 0.211765 srgb
n 24.193262 7.860013 m 24.405164 7.647481 l 24.405164 7.289798 l 24.193262 7.490680 l 24.193262 7.860013 l s
0 slc
0 slj
[] 0 sd
0.788235 0.788235 0.713726 srgb
n 22.206171 8.094270 m 22.429093 7.814987 l 23.970025 7.814987 l 23.747103 8.094270 l 22.206171 8.094270 l ef
0 slc
0 slj
[] 0 sd
0.286275 0.286275 0.211765 srgb
n 22.206171 8.094270 m 22.429093 7.814987 l 23.970025 7.814987 l 23.747103 8.094270 l 22.206171 8.094270 l s
0 slc
0 slj
[] 0 sd
0.478431 0.478431 0.352941 srgb
n 23.747103 8.150000 m 23.970025 7.915743 l 23.970025 7.814987 l 23.747103 8.094270 l 23.747103 8.150000 l ef
0 slc
0 slj
[] 0 sd
0.286275 0.286275 0.211765 srgb
n 23.747103 8.150000 m 23.970025 7.915743 l 23.970025 7.814987 l 23.747103 8.094270 l 23.747103 8.150000 l s
0 slc
0 slj
[] 0 sd
0.717647 0.717647 0.615686 srgb
n 22.206171 8.094270 m 23.747103 8.094270 l 23.747103 8.150000 l 22.206171 8.150000 l 22.206171 8.094270 l ef
0 slc
0 slj
[] 0 sd
0.286275 0.286275 0.211765 srgb
n 22.206171 8.094270 m 23.747103 8.094270 l 23.747103 8.150000 l 22.206171 8.150000 l 22.206171 8.094270 l s
0 slc
0 slj
[] 0 sd
0.000000 0.000000 0.000000 srgb
n 22.496159 7.446285 m 22.663980 7.289798 l 24.081486 7.289798 l 23.925630 7.446285 l 22.496159 7.446285 l ef
0 slc
0 slj
[] 0 sd
n 22.496159 7.446285 m 22.663980 7.289798 l 24.081486 7.289798 l 23.925630 7.446285 l 22.496159 7.446285 l s
0 slc
0 slj
[] 0 sd
0.788235 0.788235 0.713726 srgb
n 22.484824 6.295151 m 22.641625 6.150000 l 24.059761 6.150000 l 23.902960 6.295151 l 22.484824 6.295151 l ef
0 slc
0 slj
[] 0 sd
0.286275 0.286275 0.211765 srgb
n 22.484824 6.295151 m 22.641625 6.150000 l 24.059761 6.150000 l 23.902960 6.295151 l 22.484824 6.295151 l s
0 slc
0 slj
[] 0 sd
0.717647 0.717647 0.615686 srgb
n 22.484824 6.295151 m 23.914295 6.295151 l 23.914295 7.423615 l 22.484824 7.423615 l 22.484824 6.295151 l ef
0 slc
0 slj
[] 0 sd
0.286275 0.286275 0.211765 srgb
n 22.484824 6.295151 m 23.913665 6.295151 l 23.913665 7.423300 l 22.484824 7.423300 l 22.484824 6.295151 l s
0 slc
0 slj
[] 0 sd
1.000000 1.000000 1.000000 srgb
n 22.607620 6.439987 m 23.791184 6.439987 l 23.791184 7.311839 l 22.607620 7.311839 l 22.607620 6.439987 l ef
0 slc
0 slj
[] 0 sd
0.286275 0.286275 0.211765 srgb
n 22.607620 6.439987 m 23.791184 6.439987 l 23.791184 7.311524 l 22.607620 7.311524 l 22.607620 6.439987 l s
0 slc
0 slj
[] 0 sd
0.478431 0.478431 0.352941 srgb
n 23.902960 7.412909 m 24.059761 7.256423 l 24.059761 6.150000 l 23.902960 6.295151 l 23.902960 7.412909 l ef
0 slc
0 slj
[] 0 sd
0.286275 0.286275 0.211765 srgb
n 23.902960 7.412909 m 24.059761 7.256423 l 24.059761 6.150000 l 23.902960 6.295151 l 23.902960 7.412909 l s
0.100000 slw
[] 0 sd
[] 0 sd
0 slc
0 slj
0.001000 slw
0 slc
0 slj
[] 0 sd
0.717647 0.717647 0.615686 srgb
n 22.428989 0.596517 m 22.428989 2.447605 l 23.523081 2.447605 l 23.523081 0.596517 l 22.428989 0.596517 l ef
0 slc
0 slj
[] 0 sd
0.286275 0.286275 0.211765 srgb
n 22.428989 0.596517 m 22.428989 2.447605 l 23.523081 2.447605 l 23.523081 0.596517 l 22.428989 0.596517 l s
0 slc
0 slj
[] 0 sd
0.788235 0.788235 0.713726 srgb
n 22.428989 0.596517 m 22.577246 0.447605 l 23.671011 0.447605 l 23.523081 0.596517 l 22.428989 0.596517 l ef
0 slc
0 slj
[] 0 sd
0.286275 0.286275 0.211765 srgb
n 22.428989 0.596517 m 22.577246 0.447605 l 23.663811 0.447605 l s
0 slc
0 slj
[] 0 sd
n 23.663811 0.455132 m 23.523081 0.596517 l 22.428989 0.596517 l s
0 slc
0 slj
[] 0 sd
0.788235 0.788235 0.713726 srgb
n 22.496408 0.704192 m 22.996163 0.704192 l 22.996163 0.947032 l 22.496408 0.947032 l 22.496408 0.704192 l ef
0 slc
0 slj
[] 0 sd
0.384314 0.384314 0.282353 srgb
n 22.496408 0.704192 m 22.995835 0.704192 l 22.995835 0.946705 l 22.496408 0.946705 l 22.496408 0.704192 l s
0.030000 slw
0 slc
0 slj
[] 0 sd
0.925490 0.925490 0.905882 srgb
n 22.563828 0.825939 m 22.914343 0.825939 l s
0.001000 slw
0 slc
0 slj
[] 0 sd
0.478431 0.478431 0.352941 srgb
n 23.523081 2.447605 m 23.671011 2.298366 l 23.671011 0.447605 l 23.523081 0.596517 l 23.523081 2.447605 l ef
0 slc
0 slj
[] 0 sd
0.286275 0.286275 0.211765 srgb
n 23.523081 2.447605 m 23.663811 2.305893 l s
0 slc
0 slj
[] 0 sd
n 23.663811 0.455132 m 23.523081 0.596517 l 23.523081 2.447605 l s
0.030000 slw
0 slc
0 slj
[] 0 sd
0.925490 0.925490 0.905882 srgb
n 22.442734 2.325530 m 23.522754 2.325530 l s
0 slc
0 slj
[] 0 sd
0.000000 0.000000 0.000000 srgb
n 22.442734 1.339439 m 23.522754 1.339439 l s
0 slc
0 slj
[] 0 sd
0.286275 0.286275 0.211765 srgb
n 22.428989 2.312112 m 23.521772 2.312112 l s
0 slc
0 slj
[] 0 sd
0.000000 0.000000 0.000000 srgb
n 22.428989 1.325694 m 23.521772 1.325694 l s
0.001000 slw
0 slc
0 slj
[] 0 sd
0.925490 0.925490 0.905882 srgb
n 22.496408 0.933941 m 22.496408 0.704192 l 22.982417 0.704192 l s
0.100000 slw
[] 0 sd
[] 0 sd
0 slc
0.000000 0.000000 0.000000 srgb
n 22.428989 2.447605 m 19.424078 5.992534 l s
[] 0 sd
0 slj
0 slc
n 19.181598 6.278591 m 19.314201 5.735529 l 19.424078 5.992534 l 19.695610 6.058835 l ef
n 19.181598 6.278591 m 19.314201 5.735529 l 19.424078 5.992534 l 19.695610 6.058835 l cp s
0.100000 slw
[] 0 sd
[] 0 sd
0 slc
0 slj
0.001000 slw
0 slc
0 slj
[] 0 sd
0.717647 0.717647 0.615686 srgb
n 26.244836 7.588285 m 28.243262 7.588285 l 28.243262 7.957618 l 26.244836 7.957618 l 26.244836 7.588285 l ef
0 slc
0 slj
[] 0 sd
0.286275 0.286275 0.211765 srgb
n 26.244836 7.588285 m 28.243262 7.588285 l 28.243262 7.957618 l 26.244836 7.957618 l 26.244836 7.588285 l s
0 slc
0 slj
[] 0 sd
0.788235 0.788235 0.713726 srgb
n 26.244836 7.588285 m 26.456738 7.387404 l 28.455164 7.387404 l 28.243262 7.588285 l 26.244836 7.588285 l ef
0 slc
0 slj
[] 0 sd
0.286275 0.286275 0.211765 srgb
n 26.244836 7.588285 m 26.456738 7.387404 l 28.455164 7.387404 l 28.243262 7.588285 l 26.244836 7.588285 l s
0.106000 slw
0 slc
0 slj
[] 0 sd
0.000000 0.000000 0.000000 srgb
n 28.131486 7.756421 m 27.651952 7.756421 l s
0.001000 slw
0 slc
0 slj
[] 0 sd
0.478431 0.478431 0.352941 srgb
n 28.243262 7.957618 m 28.455164 7.745086 l 28.455164 7.387404 l 28.243262 7.588285 l 28.243262 7.957618 l ef
0 slc
0 slj
[] 0 sd
0.286275 0.286275 0.211765 srgb
n 28.243262 7.957618 m 28.455164 7.745086 l 28.455164 7.387404 l 28.243262 7.588285 l 28.243262 7.957618 l s
0 slc
0 slj
[] 0 sd
0.788235 0.788235 0.713726 srgb
n 26.256171 8.191875 m 26.479093 7.912592 l 28.020025 7.912592 l 27.797103 8.191875 l 26.256171 8.191875 l ef
0 slc
0 slj
[] 0 sd
0.286275 0.286275 0.211765 srgb
n 26.256171 8.191875 m 26.479093 7.912592 l 28.020025 7.912592 l 27.797103 8.191875 l 26.256171 8.191875 l s
0 slc
0 slj
[] 0 sd
0.478431 0.478431 0.352941 srgb
n 27.797103 8.247605 m 28.020025 8.013348 l 28.020025 7.912592 l 27.797103 8.191875 l 27.797103 8.247605 l ef
0 slc
0 slj
[] 0 sd
0.286275 0.286275 0.211765 srgb
n 27.797103 8.247605 m 28.020025 8.013348 l 28.020025 7.912592 l 27.797103 8.191875 l 27.797103 8.247605 l s
0 slc
0 slj
[] 0 sd
0.717647 0.717647 0.615686 srgb
n 26.256171 8.191875 m 27.797103 8.191875 l 27.797103 8.247605 l 26.256171 8.247605 l 26.256171 8.191875 l ef
0 slc
0 slj
[] 0 sd
0.286275 0.286275 0.211765 srgb
n 26.256171 8.191875 m 27.797103 8.191875 l 27.797103 8.247605 l 26.256171 8.247605 l 26.256171 8.191875 l s
0 slc
0 slj
[] 0 sd
0.000000 0.000000 0.000000 srgb
n 26.546159 7.543890 m 26.713980 7.387404 l 28.131486 7.387404 l 27.975630 7.543890 l 26.546159 7.543890 l ef
0 slc
0 slj
[] 0 sd
n 26.546159 7.543890 m 26.713980 7.387404 l 28.131486 7.387404 l 27.975630 7.543890 l 26.546159 7.543890 l s
0 slc
0 slj
[] 0 sd
0.788235 0.788235 0.713726 srgb
n 26.534824 6.392756 m 26.691625 6.247605 l 28.109761 6.247605 l 27.952960 6.392756 l 26.534824 6.392756 l ef
0 slc
0 slj
[] 0 sd
0.286275 0.286275 0.211765 srgb
n 26.534824 6.392756 m 26.691625 6.247605 l 28.109761 6.247605 l 27.952960 6.392756 l 26.534824 6.392756 l s
0 slc
0 slj
[] 0 sd
0.717647 0.717647 0.615686 srgb
n 26.534824 6.392756 m 27.964295 6.392756 l 27.964295 7.521220 l 26.534824 7.521220 l 26.534824 6.392756 l ef
0 slc
0 slj
[] 0 sd
0.286275 0.286275 0.211765 srgb
n 26.534824 6.392756 m 27.963665 6.392756 l 27.963665 7.520905 l 26.534824 7.520905 l 26.534824 6.392756 l s
0 slc
0 slj
[] 0 sd
1.000000 1.000000 1.000000 srgb
n 26.657620 6.537592 m 27.841184 6.537592 l 27.841184 7.409444 l 26.657620 7.409444 l 26.657620 6.537592 l ef
0 slc
0 slj
[] 0 sd
0.286275 0.286275 0.211765 srgb
n 26.657620 6.537592 m 27.841184 6.537592 l 27.841184 7.409129 l 26.657620 7.409129 l 26.657620 6.537592 l s
0 slc
0 slj
[] 0 sd
0.478431 0.478431 0.352941 srgb
n 27.952960 7.510514 m 28.109761 7.354028 l 28.109761 6.247605 l 27.952960 6.392756 l 27.952960 7.510514 l ef
0 slc
0 slj
[] 0 sd
0.286275 0.286275 0.211765 srgb
n 27.952960 7.510514 m 28.109761 7.354028 l 28.109761 6.247605 l 27.952960 6.392756 l 27.952960 7.510514 l s
0.100000 slw
[] 0 sd
[] 0 sd
0 slc
0.000000 0.000000 0.000000 srgb
n 23.671404 2.134078 m 27.073727 5.886951 l s
[] 0 sd
0 slj
0 slc
n 27.325599 6.164774 m 26.804555 5.962258 l 27.073727 5.886951 l 27.174985 5.626429 l ef
n 27.325599 6.164774 m 26.804555 5.962258 l 27.073727 5.886951 l 27.174985 5.626429 l cp s
0.100000 slw
[] 0 sd
[] 0 sd
0 slc
n 22.975871 2.447605 m 23.301661 5.665672 l s
[] 0 sd
0 slj
0 slc
n 23.339432 6.038765 m 23.040342 5.566489 l 23.301661 5.665672 l 23.537799 5.516127 l ef
n 23.339432 6.038765 m 23.040342 5.566489 l 23.301661 5.665672 l 23.537799 5.516127 l cp s
gsave 24.350000 0.997605 translate 0.035278 -0.035278 scale
start_ol
3136 3264 moveto
3136 2752 lineto
2892 2977 2616 3088 conicto
2340 3200 2030 3200 conicto
1418 3200 1093 2829 conicto
768 2459 768 1759 conicto
768 1061 1093 690 conicto
1418 320 2030 320 conicto
2340 320 2616 431 conicto
2892 543 3136 768 conicto
3136 256 lineto
2882 96 2599 16 conicto
2316 -64 2000 -64 conicto
1189 -64 722 424 conicto
256 913 256 1759 conicto
256 2607 722 3095 conicto
1189 3584 2000 3584 conicto
2320 3584 2603 3504 conicto
2887 3424 3136 3264 conicto
end_ol grestore 
gsave 24.797080 0.997605 translate 0.035278 -0.035278 scale
start_ol
2752 1480 moveto
2752 1280 lineto
704 1280 lineto
733 811 978 565 conicto
1223 320 1660 320 conicto
1914 320 2152 384 conicto
2390 448 2624 576 conicto
2624 192 lineto
2388 67 2140 1 conicto
1893 -64 1639 -64 conicto
1001 -64 628 309 conicto
256 683 256 1320 conicto
256 1979 613 2365 conicto
970 2752 1576 2752 conicto
2120 2752 2436 2410 conicto
2752 2068 2752 1480 conicto
2304 1600 moveto
2299 1950 2099 2159 conicto
1900 2368 1572 2368 conicto
1200 2368 976 2166 conicto
753 1964 719 1597 conicto
2304 1600 lineto
end_ol grestore 
gsave 25.191706 0.997605 translate 0.035278 -0.035278 scale
start_ol
896 384 moveto
896 -1024 lineto
448 -1024 lineto
448 2688 lineto
896 2688 lineto
896 2304 lineto
1032 2531 1240 2641 conicto
1448 2752 1737 2752 conicto
2217 2752 2516 2364 conicto
2816 1976 2816 1344 conicto
2816 712 2516 324 conicto
2217 -64 1737 -64 conicto
1448 -64 1240 46 conicto
1032 157 896 384 conicto
2368 1344 moveto
2368 1823 2171 2095 conicto
1975 2368 1632 2368 conicto
1289 2368 1092 2095 conicto
896 1823 896 1344 conicto
896 865 1092 592 conicto
1289 320 1632 320 conicto
1975 320 2171 592 conicto
2368 865 2368 1344 conicto
end_ol grestore 
gsave 25.598825 0.997605 translate 0.035278 -0.035278 scale
start_ol
896 1280 moveto
896 320 lineto
1509 320 lineto
1803 320 1957 443 conicto
2112 567 2112 801 conicto
2112 1035 1957 1157 conicto
1803 1280 1509 1280 conicto
896 1280 lineto
896 2368 moveto
896 1600 lineto
1447 1600 lineto
1684 1600 1834 1703 conicto
1984 1806 1984 1989 conicto
1984 2172 1834 2270 conicto
1684 2368 1447 2368 conicto
896 2368 lineto
448 2688 moveto
1474 2688 lineto
1935 2688 2183 2515 conicto
2432 2342 2432 2023 conicto
2432 1776 2304 1631 conicto
2176 1486 1924 1450 conicto
2226 1392 2393 1209 conicto
2560 1027 2560 754 conicto
2560 394 2289 197 conicto
2018 0 1516 0 conicto
448 0 lineto
448 2688 lineto
end_ol grestore 
gsave 25.975972 0.997605 translate 0.035278 -0.035278 scale
start_ol
2752 1480 moveto
2752 1280 lineto
704 1280 lineto
733 811 978 565 conicto
1223 320 1660 320 conicto
1914 320 2152 384 conicto
2390 448 2624 576 conicto
2624 192 lineto
2388 67 2140 1 conicto
1893 -64 1639 -64 conicto
1001 -64 628 309 conicto
256 683 256 1320 conicto
256 1979 613 2365 conicto
970 2752 1576 2752 conicto
2120 2752 2436 2410 conicto
2752 2068 2752 1480 conicto
2304 1600 moveto
2299 1950 2099 2159 conicto
1900 2368 1572 2368 conicto
1200 2368 976 2166 conicto
753 1964 719 1597 conicto
2304 1600 lineto
end_ol grestore 
gsave 26.370598 0.997605 translate 0.035278 -0.035278 scale
start_ol
896 384 moveto
896 -1024 lineto
448 -1024 lineto
448 2688 lineto
896 2688 lineto
896 2304 lineto
1032 2531 1240 2641 conicto
1448 2752 1737 2752 conicto
2217 2752 2516 2364 conicto
2816 1976 2816 1344 conicto
2816 712 2516 324 conicto
2217 -64 1737 -64 conicto
1448 -64 1240 46 conicto
1032 157 896 384 conicto
2368 1344 moveto
2368 1823 2171 2095 conicto
1975 2368 1632 2368 conicto
1289 2368 1092 2095 conicto
896 1823 896 1344 conicto
896 865 1092 592 conicto
1289 320 1632 320 conicto
1975 320 2171 592 conicto
2368 865 2368 1344 conicto
end_ol grestore 
gsave 26.777717 0.997605 translate 0.035278 -0.035278 scale
start_ol
448 2688 moveto
896 2688 lineto
896 1600 lineto
2304 1600 lineto
2304 2688 lineto
2752 2688 lineto
2752 0 lineto
2304 0 lineto
2304 1280 lineto
896 1280 lineto
896 0 lineto
448 0 lineto
448 2688 lineto
end_ol grestore 
gsave 27.194825 0.997605 translate 0.035278 -0.035278 scale
start_ol
1622 1344 moveto
1104 1344 904 1225 conicto
704 1106 704 818 conicto
704 589 854 454 conicto
1004 320 1262 320 conicto
1618 320 1833 572 conicto
2048 825 2048 1244 conicto
2048 1344 lineto
1622 1344 lineto
2496 1513 moveto
2496 0 lineto
2048 0 lineto
2048 384 lineto
1900 154 1679 45 conicto
1458 -64 1138 -64 conicto
733 -64 494 162 conicto
256 389 256 769 conicto
256 1213 555 1438 conicto
854 1664 1448 1664 conicto
2048 1664 lineto
2048 1712 lineto
2048 2025 1851 2196 conicto
1655 2368 1300 2368 conicto
1074 2368 860 2320 conicto
646 2272 448 2176 conicto
448 2560 lineto
687 2656 912 2704 conicto
1138 2752 1351 2752 conicto
1927 2752 2211 2444 conicto
2496 2137 2496 1513 conicto
end_ol grestore 
gsave 27.586954 0.997605 translate 0.035278 -0.035278 scale
start_ol
896 1921 moveto
896 1711 1045 1591 conicto
1194 1472 1471 1472 conicto
2048 1472 lineto
2048 2368 lineto
1471 2368 lineto
1194 2368 1045 2251 conicto
896 2134 896 1921 conicto
256 0 moveto
1089 1178 lineto
813 1241 630 1405 conicto
448 1570 448 1913 conicto
448 2302 701 2495 conicto
954 2688 1465 2688 conicto
2496 2688 lineto
2496 0 lineto
2048 0 lineto
2048 1152 lineto
1506 1152 lineto
725 0 lineto
256 0 lineto
end_ol grestore 
gsave 27.971592 0.997605 translate 0.035278 -0.035278 scale
start_ol
end_ol grestore 
gsave 28.173899 0.997605 translate 0.035278 -0.035278 scale
start_ol
1984 0 moveto
1984 1152 lineto
1189 1152 lineto
834 1152 597 1377 conicto
384 1580 384 2016 conicto
384 2688 lineto
832 2688 lineto
832 2041 lineto
832 1758 950 1615 conicto
1071 1472 1308 1472 conicto
1984 1472 lineto
1984 2688 lineto
2432 2688 lineto
2432 0 lineto
1984 0 lineto
end_ol grestore 
gsave 28.551046 0.997605 translate 0.035278 -0.035278 scale
start_ol
1622 1344 moveto
1104 1344 904 1225 conicto
704 1106 704 818 conicto
704 589 854 454 conicto
1004 320 1262 320 conicto
1618 320 1833 572 conicto
2048 825 2048 1244 conicto
2048 1344 lineto
1622 1344 lineto
2496 1513 moveto
2496 0 lineto
2048 0 lineto
2048 384 lineto
1900 154 1679 45 conicto
1458 -64 1138 -64 conicto
733 -64 494 162 conicto
256 389 256 769 conicto
256 1213 555 1438 conicto
854 1664 1448 1664 conicto
2048 1664 lineto
2048 1712 lineto
2048 2025 1851 2196 conicto
1655 2368 1300 2368 conicto
1074 2368 860 2320 conicto
646 2272 448 2176 conicto
448 2560 lineto
687 2656 912 2704 conicto
1138 2752 1351 2752 conicto
1927 2752 2211 2444 conicto
2496 2137 2496 1513 conicto
end_ol grestore 
gsave 28.943175 0.997605 translate 0.035278 -0.035278 scale
start_ol
2368 2560 moveto
2368 2176 lineto
2180 2272 1991 2320 conicto
1803 2368 1611 2368 conicto
1180 2368 942 2099 conicto
704 1830 704 1344 conicto
704 858 942 589 conicto
1180 320 1611 320 conicto
1803 320 1991 368 conicto
2180 416 2368 512 conicto
2368 128 lineto
2184 32 1987 -16 conicto
1791 -64 1569 -64 conicto
966 -64 611 316 conicto
256 697 256 1344 conicto
256 2000 615 2376 conicto
974 2752 1598 2752 conicto
1801 2752 1994 2704 conicto
2187 2656 2368 2560 conicto
end_ol grestore 
gsave 29.295344 0.997605 translate 0.035278 -0.035278 scale
start_ol
128 2688 moveto
2752 2688 lineto
2752 2368 lineto
1664 2368 lineto
1664 0 lineto
1216 0 lineto
1216 2368 lineto
128 2368 lineto
128 2688 lineto
end_ol grestore 
gsave 29.667488 0.997605 translate 0.035278 -0.035278 scale
start_ol
2112 801 moveto
2112 1035 1958 1157 conicto
1805 1280 1510 1280 conicto
896 1280 lineto
896 320 lineto
1510 320 lineto
1805 320 1958 443 conicto
2112 567 2112 801 conicto
448 2688 moveto
896 2688 lineto
896 1600 lineto
1524 1600 lineto
2022 1600 2291 1403 conicto
2560 1207 2560 801 conicto
2560 396 2289 198 conicto
2018 0 1516 0 conicto
448 0 lineto
448 2688 lineto
end_ol grestore 
gsave 18.350000 9.997605 translate 0.035278 -0.035278 scale
start_ol
448 3520 moveto
960 3520 lineto
960 1780 lineto
2656 3520 lineto
3264 3520 lineto
1909 2129 lineto
3328 0 lineto
2813 0 lineto
1601 1813 lineto
960 1155 lineto
960 0 lineto
448 0 lineto
448 3520 lineto
end_ol grestore 
gsave 18.804571 9.997605 translate 0.035278 -0.035278 scale
start_ol
192 0 moveto
192 320 lineto
611 389 740 697 conicto
896 1131 896 2240 conicto
896 2688 lineto
2688 2688 lineto
2688 0 lineto
2240 0 lineto
2240 2368 lineto
1344 2368 lineto
1344 2098 lineto
1344 1046 1137 574 conicto
916 71 192 0 conicto
end_ol grestore 
gsave 19.214187 9.997605 translate 0.035278 -0.035278 scale
start_ol
2752 2688 moveto
2752 0 lineto
2304 0 lineto
2304 2158 lineto
1022 0 lineto
448 0 lineto
448 2688 lineto
896 2688 lineto
896 535 lineto
2176 2688 lineto
2752 2688 lineto
end_ol grestore 
gsave 19.628797 9.997605 translate 0.035278 -0.035278 scale
start_ol
2752 1480 moveto
2752 1280 lineto
704 1280 lineto
733 811 978 565 conicto
1223 320 1660 320 conicto
1914 320 2152 384 conicto
2390 448 2624 576 conicto
2624 192 lineto
2388 67 2140 1 conicto
1893 -64 1639 -64 conicto
1001 -64 628 309 conicto
256 683 256 1320 conicto
256 1979 613 2365 conicto
970 2752 1576 2752 conicto
2120 2752 2436 2410 conicto
2752 2068 2752 1480 conicto
2304 1600 moveto
2299 1950 2099 2159 conicto
1900 2368 1572 2368 conicto
1200 2368 976 2166 conicto
753 1964 719 1597 conicto
2304 1600 lineto
end_ol grestore 
gsave 20.023423 9.997605 translate 0.035278 -0.035278 scale
start_ol
448 2688 moveto
896 2688 lineto
896 1600 lineto
2304 1600 lineto
2304 2688 lineto
2752 2688 lineto
2752 0 lineto
2304 0 lineto
2304 1280 lineto
896 1280 lineto
896 0 lineto
448 0 lineto
448 2688 lineto
end_ol grestore 
gsave 20.440531 9.997605 translate 0.035278 -0.035278 scale
start_ol
128 2688 moveto
2752 2688 lineto
2752 2368 lineto
1664 2368 lineto
1664 0 lineto
1216 0 lineto
1216 2368 lineto
128 2368 lineto
128 2688 lineto
end_ol grestore 
gsave 20.812676 9.997605 translate 0.035278 -0.035278 scale
start_ol
2368 2560 moveto
2368 2176 lineto
2180 2272 1991 2320 conicto
1803 2368 1611 2368 conicto
1180 2368 942 2099 conicto
704 1830 704 1344 conicto
704 858 942 589 conicto
1180 320 1611 320 conicto
1803 320 1991 368 conicto
2180 416 2368 512 conicto
2368 128 lineto
2184 32 1987 -16 conicto
1791 -64 1569 -64 conicto
966 -64 611 316 conicto
256 697 256 1344 conicto
256 2000 615 2376 conicto
974 2752 1598 2752 conicto
1801 2752 1994 2704 conicto
2187 2656 2368 2560 conicto
end_ol grestore 
gsave 21.164844 9.997605 translate 0.035278 -0.035278 scale
start_ol
448 2688 moveto
896 2688 lineto
896 1426 lineto
2100 2688 lineto
2624 2688 lineto
1631 1649 lineto
2752 0 lineto
2274 0 lineto
1353 1356 lineto
896 876 lineto
896 0 lineto
448 0 lineto
448 2688 lineto
end_ol grestore 
gsave 21.551979 9.997605 translate 0.035278 -0.035278 scale
start_ol
1622 1344 moveto
1104 1344 904 1225 conicto
704 1106 704 818 conicto
704 589 854 454 conicto
1004 320 1262 320 conicto
1618 320 1833 572 conicto
2048 825 2048 1244 conicto
2048 1344 lineto
1622 1344 lineto
2496 1513 moveto
2496 0 lineto
2048 0 lineto
2048 384 lineto
1900 154 1679 45 conicto
1458 -64 1138 -64 conicto
733 -64 494 162 conicto
256 389 256 769 conicto
256 1213 555 1438 conicto
854 1664 1448 1664 conicto
2048 1664 lineto
2048 1712 lineto
2048 2025 1851 2196 conicto
1655 2368 1300 2368 conicto
1074 2368 860 2320 conicto
646 2272 448 2176 conicto
448 2560 lineto
687 2656 912 2704 conicto
1138 2752 1351 2752 conicto
1927 2752 2211 2444 conicto
2496 2137 2496 1513 conicto
end_ol grestore 
gsave 21.944108 9.997605 translate 0.035278 -0.035278 scale
start_ol
896 1921 moveto
896 1711 1045 1591 conicto
1194 1472 1471 1472 conicto
2048 1472 lineto
2048 2368 lineto
1471 2368 lineto
1194 2368 1045 2251 conicto
896 2134 896 1921 conicto
256 0 moveto
1089 1178 lineto
813 1241 630 1405 conicto
448 1570 448 1913 conicto
448 2302 701 2495 conicto
954 2688 1465 2688 conicto
2496 2688 lineto
2496 0 lineto
2048 0 lineto
2048 1152 lineto
1506 1152 lineto
725 0 lineto
256 0 lineto
end_ol grestore 
gsave 22.328746 9.997605 translate 0.035278 -0.035278 scale
start_ol
end_ol grestore 
gsave 22.531053 9.997605 translate 0.035278 -0.035278 scale
start_ol
1984 0 moveto
1984 1152 lineto
1189 1152 lineto
834 1152 597 1377 conicto
384 1580 384 2016 conicto
384 2688 lineto
832 2688 lineto
832 2041 lineto
832 1758 950 1615 conicto
1071 1472 1308 1472 conicto
1984 1472 lineto
1984 2688 lineto
2432 2688 lineto
2432 0 lineto
1984 0 lineto
end_ol grestore 
gsave 22.908200 9.997605 translate 0.035278 -0.035278 scale
start_ol
1622 1344 moveto
1104 1344 904 1225 conicto
704 1106 704 818 conicto
704 589 854 454 conicto
1004 320 1262 320 conicto
1618 320 1833 572 conicto
2048 825 2048 1244 conicto
2048 1344 lineto
1622 1344 lineto
2496 1513 moveto
2496 0 lineto
2048 0 lineto
2048 384 lineto
1900 154 1679 45 conicto
1458 -64 1138 -64 conicto
733 -64 494 162 conicto
256 389 256 769 conicto
256 1213 555 1438 conicto
854 1664 1448 1664 conicto
2048 1664 lineto
2048 1712 lineto
2048 2025 1851 2196 conicto
1655 2368 1300 2368 conicto
1074 2368 860 2320 conicto
646 2272 448 2176 conicto
448 2560 lineto
687 2656 912 2704 conicto
1138 2752 1351 2752 conicto
1927 2752 2211 2444 conicto
2496 2137 2496 1513 conicto
end_ol grestore 
gsave 23.300329 9.997605 translate 0.035278 -0.035278 scale
start_ol
2368 2560 moveto
2368 2176 lineto
2180 2272 1991 2320 conicto
1803 2368 1611 2368 conicto
1180 2368 942 2099 conicto
704 1830 704 1344 conicto
704 858 942 589 conicto
1180 320 1611 320 conicto
1803 320 1991 368 conicto
2180 416 2368 512 conicto
2368 128 lineto
2184 32 1987 -16 conicto
1791 -64 1569 -64 conicto
966 -64 611 316 conicto
256 697 256 1344 conicto
256 2000 615 2376 conicto
974 2752 1598 2752 conicto
1801 2752 1994 2704 conicto
2187 2656 2368 2560 conicto
end_ol grestore 
gsave 23.652498 9.997605 translate 0.035278 -0.035278 scale
start_ol
128 2688 moveto
2752 2688 lineto
2752 2368 lineto
1664 2368 lineto
1664 0 lineto
1216 0 lineto
1216 2368 lineto
128 2368 lineto
128 2688 lineto
end_ol grestore 
gsave 24.024643 9.997605 translate 0.035278 -0.035278 scale
start_ol
2112 801 moveto
2112 1035 1958 1157 conicto
1805 1280 1510 1280 conicto
896 1280 lineto
896 320 lineto
1510 320 lineto
1805 320 1958 443 conicto
2112 567 2112 801 conicto
448 2688 moveto
896 2688 lineto
896 1600 lineto
1524 1600 lineto
2022 1600 2291 1403 conicto
2560 1207 2560 801 conicto
2560 396 2289 198 conicto
2018 0 1516 0 conicto
448 0 lineto
448 2688 lineto
end_ol grestore 
showpage
